time;azimuth;pitch;roll
0.009;75.087;-0.187;-3.043
0.013;75.089;-0.187;-3.043
0.044;75.605;-0.084;-1.703
0.067;75.602;-0.084;-1.703
0.098;75.729;-0.007;-1.557
0.130;75.733;-0.007;-1.557
0.131;75.430;-0.071;-2.361
0.164;75.755;-0.000;-1.504
0.173;75.756;-0.000;-1.504
0.201;75.464;-0.120;-2.058
0.227;75.402;-0.120;-2.058
0.240;75.539;-0.084;-1.725
0.281;75.458;-0.077;-2.031
0.282;75.455;-0.077;-2.031
0.319;75.540;-0.063;-1.793
0.335;75.146;-0.063;-1.793
0.359;75.117;-0.063;-1.888
0.387;75.118;-0.063;-1.888
0.402;75.141;-0.035;-1.919
0.438;75.140;-0.042;-1.894
0.439;74.893;-0.042;-1.894
0.479;74.901;-0.077;-1.739
0.493;74.899;-0.077;-1.739
0.516;74.860;-0.077;-1.865
0.547;74.943;-0.077;-1.865
0.555;75.015;0.007;-1.940
0.596;74.950;-0.084;-1.816
0.599;74.951;-0.084;-1.816
0.636;74.927;-0.105;-1.815
0.654;75.318;-0.105;-1.815
0.674;75.326;-0.063;-1.950
0.706;75.323;-0.063;-1.950
0.724;75.372;-0.063;-1.786
0.752;75.443;0.007;-1.814
0.761;75.542;0.007;-1.814
0.792;75.392;-0.098;-1.916
0.825;75.393;-0.098;-1.916
0.833;75.420;-0.084;-1.879
0.867;75.625;-0.084;-1.879
0.871;75.636;-0.084;-1.842
0.910;75.562;-0.126;-1.932
0.920;75.872;-0.126;-1.932
0.949;75.972;-0.049;-1.892
0.973;75.973;-0.049;-1.892
0.989;76.057;0.007;-1.822
1.028;76.242;0.007;-1.822
1.028;76.080;-0.119;-1.885
1.067;76.099;-0.112;-1.846
1.084;76.100;-0.112;-1.846
1.108;76.117;-0.112;-1.788
1.133;76.507;-0.112;-1.788
1.151;76.508;-0.112;-1.786
1.185;76.501;-0.112;-1.809
1.186;76.502;-0.112;-1.809
1.225;76.565;-0.063;-1.780
1.240;76.776;-0.063;-1.780
1.264;76.658;-0.168;-1.779
1.293;76.659;-0.168;-1.779
1.304;76.838;0.021;-1.907
1.343;76.812;-0.021;-1.825
1.348;77.096;-0.021;-1.825
1.382;76.969;-0.133;-1.823
1.402;76.970;-0.133;-1.823
1.423;77.066;-0.035;-1.879
1.453;76.919;-0.035;-1.879
1.460;76.875;-0.098;-1.774
1.501;76.971;-0.000;-1.830
1.506;76.971;-0.000;-1.830
1.540;76.805;-0.147;-1.831
1.560;76.351;-0.147;-1.831
1.580;76.466;-0.028;-1.898
1.613;76.467;-0.028;-1.898
1.618;76.398;-0.105;-1.832
1.658;76.391;-0.105;-1.859
1.667;76.291;-0.105;-1.859
1.697;76.283;-0.105;-1.886
1.720;76.284;-0.105;-1.886
1.738;76.329;-0.070;-1.865
1.773;76.019;-0.070;-1.865
1.775;76.066;-0.028;-1.865
1.816;76.014;-0.056;-1.936
1.827;75.893;-0.056;-1.936
1.855;75.996;0.021;-1.880
1.880;75.996;0.021;-1.880
1.893;75.941;-0.042;-1.824
1.934;75.912;-0.042;-1.928
1.934;75.930;-0.042;-1.928
1.973;75.892;-0.077;-1.921
1.987;75.890;-0.077;-1.921
2.013;75.937;-0.049;-1.867
2.040;75.874;-0.049;-1.867
2.054;75.834;-0.091;-1.839
2.091;75.819;-0.091;-1.893
2.093;75.820;-0.091;-1.893
2.130;75.867;-0.028;-1.977
2.146;75.786;-0.028;-1.977
2.170;75.810;-0.028;-1.893
2.200;75.808;-0.028;-1.893
2.208;75.790;-0.049;-1.872
2.248;75.747;-0.070;-1.937
2.264;75.689;-0.070;-1.937
2.289;75.710;-0.070;-1.865
2.306;75.710;-0.070;-1.865
2.329;75.809;0.014;-1.857
2.360;76.056;0.014;-1.857
2.368;75.963;-0.056;-1.901
2.406;75.994;-0.021;-1.934
2.414;75.992;-0.021;-1.934
2.445;76.019;-0.028;-1.810
2.468;75.794;-0.028;-1.810
2.484;75.720;-0.084;-1.842
2.520;75.721;-0.084;-1.842
2.523;75.708;-0.084;-1.884
2.563;75.796;-0.007;-1.887
2.573;75.551;-0.007;-1.887
2.603;75.442;-0.119;-1.824
2.627;75.399;-0.119;-1.824
2.642;75.429;-0.084;-1.858
2.681;75.429;-0.084;-1.858
2.681;75.461;-0.056;-1.858
2.722;75.406;-0.105;-1.858
2.734;75.306;-0.105;-1.858
2.760;75.330;-0.084;-1.857
2.787;75.331;-0.084;-1.857
2.801;75.330;-0.084;-1.858
2.838;75.330;-0.084;-1.859
2.839;75.355;-0.084;-1.859
2.878;75.310;-0.140;-1.802
2.893;75.310;-0.140;-1.802
2.917;75.395;-0.042;-1.886
2.946;75.234;-0.042;-1.886
2.956;75.234;-0.042;-1.885
2.996;75.211;-0.070;-1.858
2.999;75.211;-0.070;-1.858
3.036;75.213;-0.070;-1.853
3.054;75.127;-0.070;-1.853
3.075;75.096;-0.091;-1.878
3.106;75.097;-0.091;-1.878
3.118;75.164;-0.021;-1.914
3.155;75.132;-0.063;-1.865
3.159;75.172;-0.063;-1.865
3.193;75.159;-0.084;-1.828
3.213;75.160;-0.084;-1.828
3.234;75.177;-0.056;-1.875
3.267;75.074;-0.056;-1.875
3.271;75.072;-0.056;-1.880
3.311;75.134;-0.014;-1.831
3.319;75.135;-0.014;-1.831
3.350;75.038;-0.091;-1.866
3.373;74.991;-0.091;-1.866
3.390;74.993;-0.084;-1.886
3.427;74.970;-0.084;-1.886
3.428;75.048;-0.028;-1.838
3.470;75.035;-0.028;-1.880
3.486;75.033;-0.028;-1.880
3.508;75.031;-0.028;-1.886
3.534;74.987;-0.028;-1.886
3.551;74.966;-0.070;-1.801
3.589;74.949;-0.063;-1.880
3.589;74.950;-0.063;-1.880
3.626;74.926;-0.084;-1.880
3.640;74.662;-0.084;-1.880
3.665;74.710;-0.042;-1.881
3.693;74.707;-0.042;-1.881
3.704;74.710;-0.042;-1.872
3.744;74.654;-0.091;-1.872
3.746;74.836;-0.091;-1.872
3.784;74.899;-0.021;-1.928
3.803;74.900;-0.021;-1.928
3.823;74.910;-0.021;-1.895
3.853;75.030;-0.021;-1.895
3.868;75.006;-0.042;-1.893
3.904;74.999;-0.056;-1.864
3.906;74.997;-0.056;-1.864
3.940;74.982;-0.063;-1.885
3.960;75.191;-0.063;-1.885
3.980;75.239;-0.021;-1.887
4.013;75.239;-0.021;-1.887
4.018;75.228;-0.014;-1.950
4.059;75.185;-0.070;-1.880
4.068;75.436;-0.070;-1.880
4.098;75.469;-0.056;-1.823
4.122;75.466;-0.056;-1.823
4.137;75.442;-0.056;-1.905
4.173;76.027;-0.056;-1.905
4.176;76.029;-0.049;-1.926
4.216;76.010;-0.077;-1.879
4.229;76.011;-0.077;-1.879
4.256;76.055;-0.049;-1.837
4.280;76.115;-0.049;-1.837
4.294;76.108;-0.049;-1.865
4.334;76.127;-0.049;-1.865
4.335;76.131;-0.035;-1.908
4.374;76.187;-0.000;-1.851
4.387;76.188;-0.000;-1.851
4.413;76.094;-0.077;-1.872
4.441;76.809;-0.077;-1.872
4.453;76.799;-0.077;-1.909
4.492;76.867;-0.028;-1.867
4.492;76.867;-0.028;-1.867
4.531;76.782;-0.098;-1.886
4.553;76.788;-0.098;-1.886
4.570;76.775;-0.098;-1.935
4.600;76.776;-0.098;-1.935
4.609;76.912;-0.000;-1.851
4.649;76.824;-0.084;-1.817
4.655;76.496;-0.084;-1.817
4.688;76.581;-0.000;-1.858
4.707;76.582;-0.000;-1.858
4.728;76.453;-0.112;-1.858
4.760;76.428;-0.112;-1.858
4.770;76.510;-0.049;-1.830
4.806;76.461;-0.098;-1.802
4.814;76.461;-0.098;-1.802
4.847;76.451;-0.098;-1.839
4.870;76.082;-0.098;-1.839
4.886;76.130;-0.049;-1.871
4.920;76.130;-0.049;-1.871
4.924;76.083;-0.098;-1.837
4.964;76.135;-0.056;-1.826
4.975;75.930;-0.056;-1.826
5.003;75.908;-0.056;-1.902
5.027;75.909;-0.056;-1.902
5.042;75.961;-0.014;-1.888
5.081;75.983;-0.014;-1.888
5.081;75.905;-0.084;-1.880
5.121;76.000;0.021;-1.970
5.135;75.819;0.021;-1.970
5.161;75.805;-0.007;-1.908
5.187;75.803;-0.007;-1.908
5.202;75.781;-0.049;-1.817
5.239;75.776;-0.035;-1.887
5.240;75.287;-0.035;-1.887
5.281;75.252;-0.070;-1.873
5.295;75.252;-0.070;-1.873
5.318;75.237;-0.084;-1.872
5.348;75.341;-0.084;-1.872
5.357;75.428;-0.007;-1.873
5.399;75.379;-0.035;-1.930
5.400;75.377;-0.035;-1.930
5.437;75.453;0.049;-2.001
5.454;75.499;0.049;-2.001
5.479;75.342;-0.112;-1.909
5.508;75.343;-0.112;-1.909
5.521;75.454;-0.021;-1.885
5.555;75.438;-0.014;-1.963
5.560;75.260;-0.014;-1.963
5.595;75.208;-0.077;-1.902
5.630;75.205;-0.077;-1.902
5.645;75.330;-0.000;-1.775
5.670;75.439;-0.000;-1.775
5.673;75.319;-0.077;-1.894
5.714;75.348;-0.042;-1.927
5.720;75.349;-0.042;-1.927
5.755;75.383;-0.042;-1.808
5.775;75.219;-0.042;-1.808
5.792;75.238;-0.014;-1.851
5.832;75.236;-0.014;-1.851
5.834;75.129;-0.098;-1.894
5.871;75.178;-0.056;-1.887
5.881;75.256;-0.056;-1.887
5.909;75.266;-0.056;-1.851
5.934;75.267;-0.056;-1.851
5.954;75.266;-0.042;-1.908
5.989;75.370;-0.042;-1.908
5.990;75.292;-0.112;-1.908
6.027;75.389;-0.042;-1.845
6.040;75.428;-0.042;-1.845
6.066;75.426;-0.035;-1.880
6.099;75.427;-0.035;-1.880
6.107;75.349;-0.112;-1.852
6.146;75.490;0.014;-1.850
6.147;75.176;0.014;-1.850
6.186;75.114;-0.049;-1.824
6.210;75.115;-0.049;-1.824
6.234;75.104;-0.049;-1.859
6.255;75.302;-0.049;-1.859
6.276;75.329;-0.021;-1.872
6.305;75.327;-0.028;-1.853
6.315;75.328;-0.028;-1.853
6.345;75.350;0.007;-1.908
6.364;75.288;0.007;-1.908
6.391;75.230;-0.049;-1.894
6.418;75.230;-0.049;-1.894
6.424;75.207;-0.077;-1.866
6.462;75.242;-0.028;-1.935
6.475;75.193;-0.028;-1.935
6.499;75.208;0.007;-2.014
6.521;75.209;0.007;-2.014
6.538;75.255;0.007;-1.859
6.576;75.378;0.007;-1.859
6.578;75.293;-0.049;-1.935
6.618;75.261;-0.077;-1.937
6.629;75.262;-0.077;-1.937
6.658;75.339;-0.028;-1.860
6.682;75.336;-0.028;-1.860
6.696;75.328;-0.035;-1.860
6.737;75.329;-0.035;-1.860
6.738;75.336;-0.014;-1.915
6.776;75.286;-0.042;-1.978
6.810;75.347;-0.042;-1.978
6.821;75.380;-0.042;-1.866
6.842;75.095;-0.042;-1.866
6.854;75.017;-0.105;-1.888
6.892;75.080;-0.035;-1.943
6.894;75.077;-0.035;-1.943
6.935;75.073;-0.056;-1.879
6.964;74.965;-0.056;-1.879
6.975;75.014;-0.007;-1.900
7.000;75.014;-0.007;-1.900
7.012;75.012;-0.007;-1.907
7.051;74.879;-0.119;-1.930
7.054;74.922;-0.119;-1.930
7.092;75.069;-0.007;-1.860
7.107;75.067;-0.007;-1.860
7.129;75.070;-0.007;-1.851
7.164;75.259;-0.007;-1.851
7.169;75.232;-0.007;-1.942
7.209;75.184;-0.070;-1.867
7.226;75.185;-0.070;-1.867
7.251;75.310;0.049;-1.894
7.276;75.499;0.049;-1.894
7.297;75.390;-0.049;-1.894
7.321;75.388;-0.049;-1.894
7.326;75.437;-0.014;-1.860
7.366;75.413;-0.021;-1.915
7.373;75.267;-0.021;-1.915
7.408;75.283;-0.007;-1.915
7.433;75.283;-0.007;-1.915
7.446;75.248;-0.042;-1.901
7.483;75.207;-0.042;-1.901
7.484;75.217;-0.042;-1.866
7.525;75.203;-0.042;-1.914
7.545;75.201;-0.042;-1.914
7.564;75.142;-0.098;-1.898
7.598;75.123;-0.098;-1.898
7.603;75.200;-0.042;-1.852
7.641;75.201;-0.042;-1.852
7.642;75.190;-0.042;-1.887
7.681;75.212;-0.021;-1.894
7.693;75.605;-0.021;-1.894
7.724;75.578;-0.056;-1.852
7.749;75.638;-0.056;-1.852
7.760;75.629;-0.056;-1.886
7.800;75.601;-0.077;-1.900
7.801;75.602;-0.077;-1.900
7.840;75.634;-0.035;-1.951
7.856;75.755;-0.035;-1.951
7.882;75.714;-0.091;-1.872
7.909;75.715;-0.091;-1.872
7.923;75.747;-0.077;-1.815
7.958;75.786;-0.042;-1.815
7.960;75.966;-0.042;-1.815
7.997;75.956;-0.042;-1.851
8.022;75.957;-0.042;-1.851
8.044;75.898;-0.105;-1.809
8.067;75.878;-0.105;-1.809
8.073;75.892;-0.105;-1.760
8.114;75.866;-0.105;-1.851
8.120;75.867;-0.105;-1.851
8.155;75.859;-0.105;-1.878
8.177;76.289;-0.105;-1.878
8.200;76.336;-0.063;-1.878
8.227;76.337;-0.063;-1.878
8.233;76.385;-0.028;-1.845
8.271;76.378;-0.028;-1.873
8.293;76.153;-0.028;-1.873
8.312;76.081;-0.105;-1.823
8.334;76.081;-0.105;-1.823
8.364;76.119;-0.070;-1.830
8.389;76.218;-0.070;-1.830
8.389;76.202;-0.070;-1.887
8.429;76.241;-0.028;-1.922
8.440;76.241;-0.028;-1.922
8.467;76.212;-0.049;-1.941
8.496;75.984;-0.049;-1.941
8.512;75.997;-0.049;-1.894
8.546;76.045;-0.007;-1.895
8.547;76.482;-0.007;-1.895
8.586;76.482;-0.007;-1.894
8.604;76.480;-0.007;-1.894
8.626;76.497;-0.000;-1.860
8.654;76.417;-0.000;-1.860
8.671;76.350;-0.049;-1.901
8.704;76.365;-0.042;-1.877
8.706;76.365;-0.042;-1.877
8.744;76.388;-0.028;-1.852
8.761;76.060;-0.028;-1.852
8.783;75.962;-0.091;-1.944
8.815;75.960;-0.091;-1.944
8.821;76.104;0.035;-1.944
8.862;76.023;-0.049;-1.889
8.866;75.943;-0.049;-1.889
8.900;75.911;-0.077;-1.889
8.921;75.912;-0.077;-1.889
8.941;75.960;-0.028;-1.915
8.974;75.648;-0.028;-1.915
8.978;75.662;-0.028;-1.866
9.018;75.675;-0.035;-1.795
9.026;75.672;-0.035;-1.795
9.076;75.642;-0.035;-1.901
9.085;75.832;-0.035;-1.901
9.101;75.782;-0.063;-1.965
9.135;75.783;-0.063;-1.965
9.136;75.758;-0.119;-1.830
9.178;75.794;-0.105;-1.760
9.190;75.779;-0.105;-1.760
9.216;75.773;-0.077;-1.893
9.241;75.770;-0.077;-1.893
9.258;75.803;-0.049;-1.885
9.297;75.471;-0.049;-1.885
9.299;75.485;-0.042;-1.864
9.336;75.461;-0.063;-1.865
9.358;75.462;-0.063;-1.865
9.376;75.494;-0.028;-1.888
9.404;75.228;-0.028;-1.888
9.413;75.252;-0.021;-1.832
9.452;75.207;-0.063;-1.828
9.454;75.157;-0.063;-1.828
9.494;75.123;-0.063;-1.940
9.512;75.124;-0.063;-1.940
9.530;75.189;-0.021;-1.881
9.563;75.169;-0.021;-1.881
9.571;75.180;-0.021;-1.844
9.615;75.090;-0.091;-1.879
9.616;75.091;-0.091;-1.879
9.651;75.186;-0.007;-1.880
9.675;75.306;-0.007;-1.880
9.696;75.268;-0.028;-1.927
9.732;75.269;-0.028;-1.927
9.734;75.268;-0.042;-1.877
9.769;75.244;-0.063;-1.879
9.774;75.674;-0.063;-1.879
9.806;75.660;-0.063;-1.928
9.835;75.661;-0.063;-1.928
9.845;75.721;-0.035;-1.830
9.880;75.698;-0.035;-1.830
9.883;75.628;-0.091;-1.851
9.925;75.604;-0.112;-1.851
9.937;75.605;-0.112;-1.851
9.968;75.692;-0.042;-1.823
9.991;75.736;-0.042;-1.823
10.014;75.724;-0.042;-1.865
10.049;75.725;-0.042;-1.865
10.050;75.764;0.007;-1.921
10.088;75.766;0.007;-1.914
10.094;76.136;0.007;-1.914
10.122;76.037;-0.098;-1.845
10.153;76.037;-0.098;-1.845
10.159;76.099;-0.056;-1.796
10.199;76.077;-0.056;-1.873
10.199;76.036;-0.056;-1.873
10.240;76.004;-0.077;-1.901
10.257;76.005;-0.077;-1.901
10.280;75.982;-0.126;-1.788
10.310;75.980;-0.126;-1.788
10.317;75.969;-0.126;-1.823
10.357;76.023;-0.056;-1.913
10.360;76.087;-0.056;-1.913
10.397;76.105;-0.049;-1.879
10.423;76.105;-0.049;-1.879
10.436;76.115;-0.049;-1.844
10.467;76.220;-0.049;-1.844
10.475;76.220;-0.049;-1.845
10.515;76.200;-0.049;-1.915
10.524;76.198;-0.049;-1.915
10.554;76.134;-0.119;-1.859
10.581;75.990;-0.119;-1.859
10.595;76.083;-0.042;-1.837
10.634;76.084;-0.042;-1.837
10.635;76.100;-0.028;-1.838
10.673;76.123;-0.014;-1.811
10.686;76.166;-0.014;-1.811
10.714;76.088;-0.070;-1.865
10.745;76.085;-0.070;-1.865
10.756;76.041;-0.098;-1.908
10.788;75.668;-0.098;-1.908
10.789;75.730;-0.056;-1.859
10.830;75.738;-0.042;-1.886
10.843;75.739;-0.042;-1.886
10.871;75.794;0.007;-1.886
10.899;75.652;0.007;-1.886
10.907;75.579;-0.056;-1.889
10.947;75.588;-0.056;-1.859
10.948;75.586;-0.056;-1.859
10.986;75.515;-0.119;-1.858
11.006;75.620;-0.119;-1.858
11.030;75.653;-0.077;-1.907
11.061;75.918;-0.077;-1.907
11.070;75.934;-0.077;-1.852
11.104;76.033;0.028;-1.922
11.106;76.033;0.028;-1.922
11.143;75.982;-0.007;-1.964
11.169;75.758;-0.007;-1.964
11.185;75.815;0.035;-1.930
11.214;75.815;0.035;-1.930
11.221;75.755;-0.035;-1.865
11.261;75.674;-0.112;-1.845
11.276;75.512;-0.112;-1.845
11.302;75.566;-0.063;-1.845
11.334;75.567;-0.063;-1.845
11.341;75.567;-0.063;-1.845
11.374;75.240;-0.063;-1.845
11.382;75.302;-0.007;-1.845
11.420;75.245;-0.049;-1.881
11.427;75.246;-0.049;-1.881
11.459;75.213;-0.077;-1.886
11.485;75.455;-0.077;-1.886
11.505;75.494;-0.049;-1.860
11.537;75.495;-0.049;-1.860
11.538;75.508;-0.028;-1.895
11.576;75.484;-0.028;-1.977
11.588;75.908;-0.028;-1.977
11.619;75.898;-0.063;-1.873
11.642;75.898;-0.063;-1.873
11.659;75.968;-0.007;-1.852
11.699;75.969;-0.007;-1.852
11.700;75.911;-0.049;-1.887
11.736;75.945;-0.014;-1.908
11.755;75.945;-0.014;-1.908
11.776;75.829;-0.126;-1.867
11.802;75.827;-0.126;-1.867
11.815;75.908;-0.063;-1.837
11.852;75.857;-0.105;-1.845
11.853;75.858;-0.105;-1.845
11.891;75.858;-0.105;-1.845
11.907;75.324;-0.105;-1.845
11.932;75.465;0.028;-1.879
11.960;76.126;0.028;-1.879
11.971;76.003;-0.077;-1.886
12.013;76.005;-0.070;-1.909
12.014;76.002;-0.070;-1.909
12.051;76.036;-0.063;-1.818
12.067;76.162;-0.063;-1.818
12.089;76.212;-0.007;-1.867
12.125;76.213;-0.007;-1.867
12.127;76.163;-0.035;-1.928
12.168;76.162;-0.063;-1.818
12.174;76.513;-0.063;-1.818
12.210;76.504;-0.063;-1.851
12.232;76.502;-0.063;-1.851
12.246;76.474;-0.084;-1.865
12.285;76.082;-0.084;-1.865
12.286;76.138;-0.035;-1.866
12.327;76.186;0.007;-1.866
12.335;76.187;0.007;-1.866
12.368;76.107;-0.056;-1.893
12.393;76.091;-0.056;-1.893
12.412;76.116;-0.021;-1.947
12.444;76.114;-0.021;-1.947
12.446;76.142;-0.021;-1.846
12.484;76.129;-0.021;-1.893
12.494;76.538;-0.021;-1.893
12.522;76.467;-0.070;-1.949
12.550;76.467;-0.070;-1.949
12.560;76.546;-0.014;-1.895
12.601;76.570;0.007;-1.895
12.602;76.386;0.007;-1.895
12.641;76.404;0.021;-1.887
12.656;76.403;0.021;-1.887
12.682;76.366;-0.021;-1.844
12.710;76.550;-0.021;-1.844
12.725;76.500;-0.042;-1.935
12.759;76.504;-0.042;-1.922
12.760;76.505;-0.042;-1.922
12.798;76.464;-0.084;-1.894
12.831;76.238;-0.084;-1.894
12.837;76.275;-0.042;-1.936
12.868;76.105;-0.042;-1.936
12.875;76.079;-0.070;-1.914
12.915;76.144;-0.028;-1.858
12.920;76.144;-0.028;-1.858
12.956;76.144;-0.028;-1.859
12.977;75.881;-0.028;-1.859
12.993;75.857;-0.028;-1.943
13.027;75.858;-0.028;-1.943
13.036;75.877;-0.028;-1.878
13.075;75.831;-0.084;-1.816
13.083;75.887;-0.084;-1.816
13.113;75.897;-0.056;-1.893
13.134;75.898;-0.056;-1.893
13.154;75.930;-0.042;-1.837
13.189;75.623;-0.042;-1.837
13.191;75.657;-0.014;-1.830
13.229;75.585;-0.063;-1.885
13.240;75.586;-0.063;-1.885
13.271;75.598;-0.056;-1.871
13.300;75.598;-0.056;-1.871
13.308;75.616;-0.049;-1.837
13.348;75.624;-0.042;-1.837
13.349;75.625;-0.042;-1.837
13.388;75.634;-0.014;-1.913
13.407;75.554;-0.014;-1.913
13.428;75.498;-0.077;-1.857
13.456;75.499;-0.077;-1.857
13.472;75.445;-0.133;-1.824
13.513;75.499;-0.070;-1.886
13.514;75.578;-0.070;-1.886
13.547;75.594;-0.056;-1.886
13.560;75.594;-0.056;-1.886
13.596;75.609;-0.056;-1.837
13.619;75.388;-0.056;-1.837
13.636;75.425;-0.014;-1.871
13.662;75.353;-0.077;-1.872
13.666;75.291;-0.077;-1.872
13.703;75.316;-0.070;-1.816
13.732;75.314;-0.070;-1.816
13.746;75.355;-0.021;-1.864
13.777;75.806;-0.021;-1.864
13.786;75.787;-0.021;-1.927
13.820;75.753;-0.063;-1.879
13.826;75.754;-0.063;-1.879
13.859;75.756;-0.063;-1.872
13.883;75.779;-0.063;-1.872
13.906;75.788;-0.063;-1.837
13.937;75.786;-0.063;-1.837
13.938;75.809;-0.028;-1.895
13.978;75.804;-0.028;-1.915
13.988;76.095;-0.028;-1.915
14.016;76.063;-0.077;-1.829
14.042;76.064;-0.077;-1.829
14.066;76.068;-0.049;-1.928
14.101;75.800;-0.049;-1.928
14.102;75.842;-0.000;-1.974
14.135;75.806;-0.063;-1.850
14.153;75.804;-0.063;-1.850
14.176;75.830;-0.063;-1.760
14.201;76.115;-0.063;-1.760
14.212;76.055;-0.091;-1.856
14.252;76.113;-0.021;-1.935
14.253;76.114;-0.021;-1.935
14.294;76.098;-0.049;-1.878
14.310;76.179;-0.049;-1.878
14.336;76.175;-0.063;-1.837
14.362;76.173;-0.063;-1.837
14.376;76.153;-0.063;-1.906
14.412;76.116;-0.098;-1.899
14.417;76.132;-0.098;-1.899
14.449;76.197;-0.056;-1.838
14.467;76.198;-0.056;-1.838
14.496;76.164;-0.077;-1.872
14.523;76.265;-0.077;-1.872
14.528;76.292;-0.042;-1.915
14.569;76.324;-0.035;-1.831
14.574;76.101;-0.035;-1.831
14.609;76.092;-0.035;-1.865
14.630;76.092;-0.035;-1.865
14.646;76.086;-0.014;-1.973
14.682;76.087;-0.014;-1.973
14.685;76.058;-0.063;-1.880
14.726;76.099;-0.021;-1.901
14.737;76.100;-0.021;-1.901
14.768;76.100;-0.021;-1.901
14.787;76.527;-0.021;-1.901
14.804;76.534;-0.007;-1.935
14.841;76.535;-0.007;-1.935
14.841;76.486;-0.063;-1.879
14.881;76.525;-0.042;-1.824
14.894;75.935;-0.042;-1.824
14.921;75.921;-0.042;-1.872
14.948;75.922;-0.042;-1.872
14.961;75.875;-0.091;-1.843
15.002;75.930;-0.042;-1.844
15.002;75.848;-0.042;-1.844
15.044;75.848;-0.042;-1.844
15.065;75.849;-0.042;-1.844
15.079;75.848;-0.042;-1.845
15.107;75.649;-0.042;-1.845
15.119;75.647;-0.042;-1.850
15.157;75.664;-0.007;-1.929
15.160;75.665;-0.007;-1.929
15.198;75.673;-0.007;-1.901
15.227;75.771;-0.007;-1.901
15.246;75.718;-0.063;-1.864
15.268;75.719;-0.063;-1.864
15.275;75.706;-0.063;-1.906
15.315;75.732;-0.042;-1.900
15.320;75.691;-0.042;-1.900
15.357;75.645;-0.091;-1.867
15.378;75.745;-0.091;-1.867
15.396;75.793;-0.056;-1.838
15.432;75.791;-0.056;-1.838
15.434;75.724;-0.105;-1.877
15.478;75.779;-0.049;-1.906
15.480;75.617;-0.049;-1.906
15.513;75.629;-0.035;-1.920
15.536;75.630;-0.035;-1.920
15.564;75.649;-0.014;-1.936
15.589;75.328;-0.014;-1.936
15.591;75.324;-0.014;-1.949
15.631;75.342;-0.007;-1.914
15.640;75.340;-0.007;-1.914
15.671;75.379;0.035;-1.944
15.699;75.746;0.035;-1.944
15.709;75.627;-0.063;-1.970
15.749;75.628;-0.063;-1.970
15.750;75.654;-0.063;-1.881
15.787;75.709;-0.014;-1.881
15.810;75.707;-0.014;-1.881
15.827;75.699;-0.014;-1.908
15.854;75.697;-0.014;-1.908
15.868;75.697;-0.014;-1.907
15.905;75.719;0.014;-1.942
15.906;75.677;0.014;-1.942
15.946;75.677;0.014;-1.944
15.960;75.677;0.014;-1.944
15.986;75.597;-0.056;-1.944
16.017;75.424;-0.056;-1.944
16.024;75.458;-0.028;-1.934
16.064;75.460;-0.028;-1.929
16.067;75.458;-0.028;-1.929
16.104;75.459;-0.014;-1.977
16.128;75.498;-0.014;-1.977
16.145;75.509;-0.014;-1.941
16.177;75.509;-0.014;-1.941
16.189;75.498;-0.042;-1.871
16.222;75.545;0.007;-1.900
16.230;75.589;0.007;-1.900
16.261;75.580;0.007;-1.929
16.283;75.722;0.007;-1.929
16.306;75.663;-0.063;-1.859
16.337;75.664;-0.063;-1.859
16.339;75.699;-0.021;-1.901
16.380;75.675;-0.042;-1.901
16.387;75.697;-0.042;-1.901
16.419;75.683;-0.056;-1.894
16.444;75.684;-0.056;-1.894
16.464;75.701;-0.035;-1.915
16.495;75.882;-0.035;-1.915
16.497;75.898;-0.021;-1.914
16.538;75.890;-0.021;-1.942
16.551;75.891;-0.021;-1.942
16.575;75.916;0.007;-1.965
16.600;76.126;0.007;-1.965
16.626;76.086;-0.035;-1.937
16.658;76.064;-0.070;-1.873
16.659;76.065;-0.070;-1.873
16.693;76.105;-0.035;-1.872
16.707;76.369;-0.035;-1.872
16.732;76.266;-0.133;-1.844
16.760;76.267;-0.133;-1.844
16.771;76.353;-0.063;-1.817
16.812;76.373;-0.028;-1.887
16.813;76.619;-0.028;-1.887
16.852;76.571;-0.077;-1.858
16.874;76.572;-0.077;-1.858
16.898;76.572;-0.077;-1.858
16.922;76.388;-0.077;-1.858
16.932;76.456;-0.007;-1.900
16.970;76.422;-0.042;-1.880
16.974;76.422;-0.042;-1.880
17.010;76.383;-0.077;-1.879
17.029;76.195;-0.077;-1.879
17.050;76.237;-0.035;-1.901
17.084;76.506;-0.035;-1.901
17.086;76.514;-0.028;-1.901
17.127;76.526;-0.028;-1.857
17.146;76.524;-0.028;-1.857
17.167;76.499;-0.049;-1.859
17.190;76.165;-0.049;-1.859
17.207;76.177;-0.028;-1.900
17.245;76.178;-0.028;-1.900
17.246;76.106;-0.091;-1.899
17.284;76.123;-0.091;-1.839
17.294;75.937;-0.091;-1.839
17.325;75.971;-0.056;-1.859
17.349;75.969;-0.056;-1.859
17.363;75.963;-0.049;-1.907
17.403;76.187;-0.049;-1.907
17.404;76.223;-0.035;-1.837
17.442;76.241;-0.014;-1.856
17.457;76.242;-0.014;-1.856
17.482;76.183;-0.049;-1.926
17.509;75.920;-0.049;-1.926
17.524;75.959;-0.014;-1.928
17.560;75.928;-0.042;-1.928
17.563;75.925;-0.042;-1.928
17.599;75.886;-0.077;-1.926
17.621;75.781;-0.077;-1.926
17.645;75.832;-0.056;-1.836
17.671;75.832;-0.056;-1.836
17.679;75.900;0.014;-1.879
17.719;75.793;-0.056;-1.970
17.720;76.042;-0.056;-1.970
17.758;76.058;-0.056;-1.914
17.776;76.056;-0.056;-1.914
17.799;76.032;-0.084;-1.885
17.829;76.117;-0.084;-1.885
17.842;76.099;-0.112;-1.837
17.875;76.171;-0.042;-1.865
17.881;76.172;-0.042;-1.865
17.913;76.097;-0.112;-1.845
17.938;76.059;-0.112;-1.845
17.954;76.111;-0.077;-1.802
17.989;76.420;-0.077;-1.802
17.992;76.403;-0.077;-1.860
18.032;76.402;-0.070;-1.893
18.040;76.403;-0.070;-1.893
18.073;76.423;-0.063;-1.850
18.095;76.752;-0.063;-1.850
18.137;76.752;-0.063;-1.851
18.152;76.753;-0.063;-1.851
18.154;76.752;-0.063;-1.851
18.188;76.696;-0.112;-1.853
18.200;76.633;-0.112;-1.853
18.235;76.633;-0.112;-1.851
18.257;76.634;-0.112;-1.851
18.274;76.721;-0.028;-1.886
18.310;76.729;-0.028;-1.858
18.311;77.100;-0.028;-1.858
18.346;77.052;-0.070;-1.857
18.360;77.053;-0.070;-1.857
18.388;77.052;-0.070;-1.860
18.418;77.070;-0.070;-1.860
18.425;77.151;-0.000;-1.860
18.466;77.141;-0.000;-1.899
18.467;77.141;-0.000;-1.899
18.505;77.053;-0.091;-1.838
18.525;77.111;-0.091;-1.838
18.555;77.151;-0.056;-1.835
18.574;77.152;-0.056;-1.835
18.581;77.168;-0.035;-1.866
18.623;77.183;-0.021;-1.867
18.627;76.907;-0.021;-1.867
18.662;76.904;-0.021;-1.881
18.681;76.904;-0.021;-1.881
18.704;76.832;-0.077;-1.915
18.735;76.154;-0.077;-1.915
18.739;76.174;-0.063;-1.898
18.779;76.233;-0.028;-1.831
18.786;76.296;-0.028;-1.831
18.820;76.209;-0.105;-1.832
18.842;76.207;-0.105;-1.832
18.861;76.215;-0.098;-1.832
18.894;75.810;-0.098;-1.832
18.900;75.838;-0.063;-1.870
18.938;75.869;-0.035;-1.872
18.957;75.870;-0.035;-1.872
18.994;75.909;-0.007;-1.847
19.002;75.490;-0.007;-1.847
19.017;75.444;-0.049;-1.845
19.055;75.441;-0.049;-1.845
19.055;75.408;-0.070;-1.880
19.098;75.393;-0.091;-1.851
19.107;75.153;-0.091;-1.851
19.133;75.211;-0.056;-1.788
19.164;75.212;-0.056;-1.788
19.176;75.237;-0.035;-1.780
19.216;75.211;-0.035;-1.870
19.218;75.117;-0.035;-1.870
19.252;75.127;-0.014;-1.915
19.270;75.124;-0.014;-1.915
19.290;75.138;-0.014;-1.867
19.322;74.916;-0.014;-1.867
19.342;74.916;-0.014;-1.867
19.369;74.932;-0.000;-1.865
19.374;74.933;-0.000;-1.865
19.410;74.861;-0.056;-1.899
19.432;75.117;-0.056;-1.899
19.453;75.193;0.014;-1.907
19.483;75.191;0.014;-1.907
19.488;75.147;-0.042;-1.845
19.528;75.108;-0.077;-1.844
19.542;75.310;-0.077;-1.844
19.569;75.363;-0.042;-1.795
19.590;75.364;-0.042;-1.795
19.608;75.340;-0.042;-1.879
19.644;75.317;-0.042;-1.879
19.649;75.313;-0.035;-1.921
19.686;75.286;-0.077;-1.851
19.694;75.706;-0.077;-1.851
19.727;75.708;-0.077;-1.845
19.749;75.709;-0.077;-1.845
19.763;75.739;-0.035;-1.907
19.803;75.863;-0.035;-1.907
19.804;75.895;-0.007;-1.907
19.846;75.911;-0.007;-1.851
19.854;75.912;-0.007;-1.851
19.882;75.841;-0.070;-1.850
19.909;75.404;-0.070;-1.850
19.927;75.395;-0.091;-1.802
19.960;75.441;-0.035;-1.860
19.961;75.442;-0.035;-1.860
20.000;75.380;-0.070;-1.935
20.022;75.338;-0.070;-1.935
20.043;75.367;-0.035;-1.970
20.067;75.368;-0.035;-1.970
20.077;75.435;-0.000;-1.880
20.118;75.396;-0.049;-1.824
20.120;75.784;-0.049;-1.824
20.161;75.808;-0.007;-1.908
20.176;75.809;-0.007;-1.908
20.201;75.753;-0.056;-1.908
20.232;75.533;-0.056;-1.908
20.246;75.550;-0.056;-1.850
20.279;75.539;-0.049;-1.914
20.281;75.540;-0.049;-1.914
20.317;75.542;-0.042;-1.935
20.345;75.850;-0.042;-1.935
20.363;75.870;-0.042;-1.865
20.397;75.871;-0.042;-1.865
20.397;75.816;-0.091;-1.865
20.432;75.903;-0.007;-1.892
20.440;75.717;-0.007;-1.892
20.471;75.691;-0.035;-1.874
20.503;75.450;-0.035;-1.874
20.516;75.334;-0.133;-1.895
20.551;75.332;-0.133;-1.895
20.552;75.387;-0.077;-1.920
20.591;75.429;-0.049;-1.885
20.608;75.593;-0.049;-1.885
20.630;75.557;-0.084;-1.874
20.654;75.558;-0.084;-1.874
20.672;75.587;-0.063;-1.853
20.714;75.857;-0.063;-1.853
20.716;75.848;-0.063;-1.885
20.753;75.856;-0.063;-1.858
20.761;75.854;-0.063;-1.858
20.788;75.803;-0.119;-1.817
20.821;75.640;-0.119;-1.817
20.828;75.650;-0.112;-1.809
20.866;75.675;-0.084;-1.831
20.867;75.676;-0.084;-1.831
20.905;75.735;-0.021;-1.871
20.928;75.123;-0.021;-1.871
20.945;75.102;-0.049;-1.837
20.975;75.100;-0.049;-1.837
20.989;75.053;-0.091;-1.837
21.026;75.097;-0.042;-1.872
21.027;75.524;-0.042;-1.872
21.063;75.485;-0.077;-1.873
21.088;75.485;-0.077;-1.873
21.108;75.485;-0.077;-1.874
21.138;75.244;-0.077;-1.874
21.141;75.207;-0.105;-1.894
21.182;75.238;-0.077;-1.893
21.188;75.236;-0.077;-1.893
21.221;75.264;-0.070;-1.823
21.244;75.147;-0.070;-1.823
21.265;75.087;-0.112;-1.871
21.301;75.087;-0.112;-1.871
21.302;75.171;-0.049;-1.823
21.341;75.126;-0.084;-1.844
21.355;75.167;-0.084;-1.844
21.378;75.243;-0.000;-1.901
21.405;75.118;-0.000;-1.901
21.419;74.997;-0.126;-1.837
21.455;74.998;-0.126;-1.837
21.455;75.075;-0.049;-1.864
21.496;75.044;-0.077;-1.865
21.509;75.084;-0.077;-1.865
21.536;75.030;-0.126;-1.865
21.562;75.031;-0.126;-1.865
21.577;75.124;-0.042;-1.865
21.616;75.051;-0.098;-1.901
21.618;75.191;-0.098;-1.901
21.654;75.269;-0.028;-1.901
21.676;75.270;-0.028;-1.901
21.694;75.292;-0.028;-1.824
21.720;75.413;-0.028;-1.824
21.732;75.437;-0.007;-1.824
21.770;75.362;-0.056;-1.892
21.773;75.363;-0.056;-1.892
21.810;75.424;-0.021;-1.815
21.834;75.358;-0.021;-1.815
21.851;75.273;-0.084;-1.864
21.883;75.274;-0.084;-1.864
21.888;75.313;-0.021;-1.969
21.928;75.262;-0.091;-1.878
21.937;75.304;-0.091;-1.878
21.969;75.338;-0.070;-1.844
21.992;75.338;-0.070;-1.844
22.009;75.357;-0.042;-1.886
22.041;75.559;-0.042;-1.886
22.045;75.530;-0.077;-1.849
22.085;75.548;-0.077;-1.786
22.094;75.549;-0.077;-1.786
22.127;75.552;-0.049;-1.886
22.153;75.755;-0.049;-1.886
22.164;75.779;-0.049;-1.800
22.203;75.756;-0.049;-1.800
22.204;75.687;-0.098;-1.850
22.244;75.701;-0.091;-1.829
22.260;75.699;-0.091;-1.829
22.282;75.689;-0.112;-1.779
22.308;75.832;-0.112;-1.779
22.321;75.824;-0.112;-1.807
22.364;75.869;-0.063;-1.843
22.365;75.870;-0.063;-1.843
22.404;75.862;-0.063;-1.871
22.414;75.946;-0.063;-1.871
22.441;75.906;-0.112;-1.815
22.468;75.903;-0.112;-1.815
22.479;75.889;-0.126;-1.808
22.519;75.873;-0.140;-1.809
22.520;76.020;-0.140;-1.809
22.561;76.094;-0.063;-1.858
22.578;76.095;-0.063;-1.858
22.601;76.023;-0.133;-1.829
22.627;76.022;-0.133;-1.829
22.647;76.081;-0.063;-1.900
22.677;76.097;-0.049;-1.901
22.689;76.094;-0.049;-1.901
22.715;76.089;-0.049;-1.922
22.741;76.462;-0.049;-1.922
22.755;76.476;-0.042;-1.900
22.788;76.477;-0.042;-1.900
22.793;76.439;-0.084;-1.865
22.834;76.427;-0.098;-1.850
22.840;76.424;-0.098;-1.850
22.874;76.435;-0.070;-1.929
22.900;76.432;-0.070;-1.929
22.912;76.480;-0.035;-1.904
22.949;76.461;-0.035;-1.904
22.950;76.471;-0.035;-1.868
22.991;76.418;-0.077;-1.886
23.010;76.418;-0.077;-1.886
23.031;76.418;-0.077;-1.886
23.062;76.590;-0.077;-1.886
23.075;76.623;-0.042;-1.914
23.113;76.450;-0.042;-1.914
23.116;76.408;-0.105;-1.802
23.152;76.451;-0.063;-1.823
23.160;76.451;-0.063;-1.823
23.188;76.448;-0.063;-1.835
23.220;76.468;-0.063;-1.835
23.227;76.484;-0.049;-1.836
23.267;76.481;-0.049;-1.845
23.268;76.482;-0.049;-1.845
23.306;76.436;-0.077;-1.894
23.333;76.562;-0.077;-1.894
23.347;76.606;-0.042;-1.886
23.374;76.606;-0.042;-1.886
23.386;76.626;-0.028;-1.872
23.425;76.605;-0.028;-1.949
23.430;76.524;-0.028;-1.949
23.462;76.566;-0.007;-1.887
23.487;76.566;-0.007;-1.887
23.505;76.560;-0.007;-1.910
23.538;75.996;-0.007;-1.910
23.543;75.920;-0.063;-1.950
23.582;75.942;-0.056;-1.901
23.587;75.943;-0.056;-1.901
23.621;75.969;-0.056;-1.810
23.649;75.928;-0.056;-1.810
23.665;75.933;-0.042;-1.850
23.700;75.933;-0.042;-1.850
23.702;75.905;-0.042;-1.949
23.739;75.937;-0.042;-1.838
23.748;75.502;-0.042;-1.838
23.779;75.532;-0.007;-1.873
23.805;75.533;-0.007;-1.873
23.826;75.424;-0.084;-1.942
23.858;75.226;-0.084;-1.942
23.859;75.202;-0.112;-1.915
23.896;75.260;-0.070;-1.880
23.909;75.263;-0.070;-1.880
23.936;75.273;-0.056;-1.901
23.962;75.270;-0.056;-1.901
23.986;75.311;-0.014;-1.922
24.018;75.220;-0.105;-1.886
24.019;75.528;-0.105;-1.886
24.055;75.558;-0.084;-1.864
24.077;75.559;-0.084;-1.864
24.098;75.554;-0.077;-1.907
24.128;75.116;-0.077;-1.907
24.133;75.140;-0.042;-1.957
24.172;75.181;-0.007;-1.950
24.174;75.178;-0.007;-1.950
24.212;75.105;-0.105;-1.830
24.234;75.026;-0.105;-1.830
24.252;75.105;-0.035;-1.821
24.283;75.106;-0.035;-1.821
24.289;75.048;-0.063;-1.913
24.329;75.058;-0.063;-1.879
24.335;75.115;-0.063;-1.879
24.369;75.156;-0.028;-1.873
24.394;75.153;-0.028;-1.873
24.410;75.065;-0.098;-1.907
24.441;75.227;-0.098;-1.907
24.446;75.258;-0.070;-1.908
24.486;75.290;-0.063;-1.824
24.493;75.291;-0.063;-1.824
24.527;75.291;-0.056;-1.851
24.551;75.130;-0.056;-1.851
24.572;75.193;0.014;-1.900
24.604;75.191;0.014;-1.900
24.605;75.152;-0.021;-1.899
24.647;75.086;-0.091;-1.858
24.667;75.043;-0.091;-1.858
24.693;74.980;-0.147;-1.859
24.709;75.022;-0.147;-1.859
24.724;75.115;-0.049;-1.915
24.762;75.116;-0.049;-1.915
24.763;75.173;-0.000;-1.908
24.802;75.125;-0.056;-1.859
24.826;74.929;-0.056;-1.859
24.847;75.013;0.035;-1.915
24.884;75.014;0.035;-1.915
24.888;74.865;-0.105;-1.895
24.919;74.924;-0.063;-1.853
24.921;74.879;-0.063;-1.853
24.958;74.391;-0.138;-3.137
24.974;74.393;-0.138;-3.137
25.007;74.958;0.130;-2.310
25.027;75.014;0.130;-2.310
25.036;77.129;-0.081;7.319
25.075;77.235;-0.417;9.330
25.085;77.233;-0.417;9.330
