time;azimuth;pitch;roll
0.019;64.832;-0.001;0.539
0.020;64.590;-0.200;0.523
0.043;64.781;-0.200;0.523
0.070;64.907;-0.171;0.688
0.104;64.996;-0.171;0.688
0.155;65.010;-0.101;0.564
0.165;65.010;-0.101;0.564
0.210;64.820;-0.243;0.524
0.229;64.820;-0.243;0.524
0.280;64.935;-0.157;0.548
0.282;64.935;-0.157;0.548
0.340;64.999;-0.157;0.548
0.360;65.202;-0.044;0.675
0.401;65.201;-0.044;0.675
0.426;64.964;-0.101;0.365
0.460;64.495;-0.101;0.365
0.490;64.277;-0.244;0.282
0.520;63.507;-0.244;0.282
0.561;63.808;-0.100;0.506
0.580;64.285;-0.100;0.506
0.629;64.077;-0.270;0.492
0.641;63.977;-0.270;0.492
0.699;63.837;-0.398;0.507
0.701;63.744;-0.398;0.507
0.760;63.553;-0.398;0.507
0.779;63.727;-0.256;0.521
0.820;63.346;-0.256;0.521
0.839;63.436;-0.115;0.394
0.882;63.147;-0.115;0.394
0.912;63.380;-0.129;0.816
0.941;63.476;-0.129;0.816
0.984;63.385;-0.086;0.576
1.007;63.767;-0.086;0.576
1.050;63.799;-0.143;0.746
1.061;63.657;-0.143;0.746
1.130;63.467;-0.213;0.562
1.131;63.468;-0.213;0.562
1.191;63.322;-0.213;0.562
1.208;63.155;-0.313;0.478
1.251;63.155;-0.313;0.478
1.274;63.439;-0.128;0.588
1.310;63.439;-0.128;0.588
1.340;63.407;-0.129;0.534
1.370;63.407;-0.129;0.534
1.410;63.264;-0.100;0.238
1.430;63.650;-0.100;0.238
1.480;63.915;-0.086;0.663
1.491;64.207;-0.086;0.663
1.550;64.258;-0.058;0.693
1.551;64.156;-0.058;0.693
1.610;64.441;-0.058;0.693
1.625;64.335;-0.101;0.595
1.670;64.611;-0.101;0.595
1.691;64.518;-0.171;0.576
1.730;64.045;-0.171;0.576
1.760;63.915;-0.185;0.379
1.790;63.915;-0.185;0.379
1.830;64.071;-0.129;0.536
1.854;64.366;-0.129;0.536
1.901;64.562;-0.044;0.704
1.911;65.046;-0.044;0.704
1.970;64.810;-0.129;0.464
1.971;64.126;-0.129;0.464
2.032;64.413;-0.129;0.464
2.041;64.549;-0.173;0.798
2.090;64.122;-0.173;0.798
2.110;63.899;-0.243;0.551
2.151;63.475;-0.243;0.551
2.180;63.616;-0.171;0.649
2.210;63.997;-0.171;0.649
2.250;63.975;-0.087;0.438
2.274;63.688;-0.087;0.438
2.320;63.587;-0.257;0.609
2.329;63.111;-0.257;0.609
2.391;62.969;-0.313;0.479
2.391;61.925;-0.313;0.479
2.450;62.301;-0.313;0.479
2.459;62.673;-0.072;0.632
2.510;62.002;-0.072;0.632
2.530;61.744;-0.314;0.665
2.571;61.932;-0.314;0.665
2.602;62.386;0.084;0.663
2.630;62.189;0.084;0.663
2.670;62.198;0.112;0.623
2.691;62.109;0.112;0.623
2.740;61.654;-0.270;0.592
2.756;62.464;-0.270;0.592
2.810;62.530;-0.256;0.675
2.811;62.583;-0.256;0.675
2.870;62.870;-0.256;0.675
2.879;63.236;-0.001;0.815
2.930;63.330;-0.001;0.815
2.953;63.096;-0.115;0.634
2.990;63.096;-0.115;0.634
3.020;63.145;-0.115;0.719
3.051;63.006;-0.115;0.719
3.090;62.829;-0.214;0.607
3.110;63.163;-0.214;0.607
3.160;63.226;-0.087;0.466
3.170;63.322;-0.087;0.466
3.230;63.345;-0.157;0.647
3.231;63.716;-0.157;0.647
3.294;64.089;-0.157;0.647
3.295;64.106;-0.143;0.647
3.312;63.954;-0.200;0.493
3.330;63.929;-0.241;0.533
3.353;64.530;-0.241;0.533
3.354;64.603;-0.199;0.575
3.373;64.631;-0.115;0.451
3.393;64.806;-0.058;0.649
3.410;64.982;-0.058;0.649
3.412;64.881;-0.171;0.702
3.430;65.006;-0.044;0.663
3.451;64.660;-0.243;0.452
3.472;64.743;-0.243;0.452
3.472;64.987;-0.058;0.509
3.490;64.894;-0.171;0.577
3.510;64.610;-0.256;0.238
3.530;64.812;-0.256;0.238
3.539;65.124;-0.143;0.562
3.556;64.806;-0.343;0.410
3.573;65.055;-0.242;0.649
3.592;65.620;-0.242;0.649
3.593;65.681;-0.156;0.574
3.610;65.543;-0.241;0.504
3.631;65.905;-0.115;0.905
3.652;65.450;-0.115;0.905
3.653;64.890;-0.469;0.635
3.671;65.545;0.055;0.708
3.691;65.369;-0.086;0.691
3.711;65.001;-0.086;0.691
3.711;64.602;-0.327;0.478
3.734;64.879;-0.171;0.648
3.758;65.143;0.041;0.677
3.780;64.583;0.041;0.677
3.781;64.524;-0.030;0.720
3.792;64.366;-0.030;0.438
3.809;64.333;-0.044;0.408
3.830;63.815;-0.044;0.408
3.832;63.480;-0.244;0.240
3.850;63.590;-0.314;0.566
3.870;63.665;-0.257;0.580
3.890;63.666;-0.257;0.580
3.891;63.733;-0.129;0.437
3.910;63.800;-0.072;0.437
3.930;63.625;-0.356;0.706
3.952;63.625;-0.356;0.706
3.952;63.709;-0.115;0.367
3.973;63.905;-0.101;0.677
3.992;63.757;-0.185;0.591
4.010;63.182;-0.185;0.591
4.011;63.287;-0.058;0.519
4.030;63.223;-0.158;0.608
4.057;63.133;-0.200;0.535
4.073;63.133;-0.200;0.535
4.074;63.345;-0.100;0.704
4.091;63.418;-0.072;0.774
4.109;63.361;-0.128;0.787
4.133;64.410;-0.128;0.787
4.133;63.995;-0.341;0.493
4.150;64.026;-0.397;0.661
4.169;64.150;-0.285;0.650
4.190;63.768;-0.285;0.650
4.191;63.810;-0.143;0.437
4.210;64.049;-0.016;0.593
4.230;63.628;-0.357;0.552
4.251;63.629;-0.357;0.552
4.252;63.893;-0.200;0.693
4.273;63.711;-0.385;0.749
4.290;63.596;-0.312;0.407
4.310;63.979;-0.312;0.407
4.311;64.227;-0.143;0.492
4.330;64.351;-0.072;0.564
4.352;64.142;-0.272;0.609
4.371;63.761;-0.272;0.609
4.372;63.736;-0.272;0.567
4.390;64.002;-0.030;0.535
4.410;63.703;-0.341;0.648
4.441;63.609;-0.341;0.648
4.441;63.886;-0.016;0.463
4.460;63.550;-0.257;0.381
4.480;64.018;-0.016;0.690
4.501;64.700;-0.016;0.690
4.502;64.254;-0.327;0.563
4.523;64.405;-0.227;0.618
4.541;64.383;-0.172;0.465
4.560;63.509;-0.172;0.465
4.561;63.660;-0.086;0.547
4.580;63.341;-0.383;0.605
4.601;63.534;-0.241;0.646
4.621;63.145;-0.241;0.646
4.622;63.229;-0.143;0.592
4.640;63.507;0.027;0.716
4.661;63.060;-0.283;0.589
4.681;63.644;-0.283;0.589
4.684;63.797;-0.044;0.365
4.701;63.686;-0.284;0.660
4.724;64.044;-0.044;0.788
4.742;64.808;-0.044;0.788
4.743;64.250;-0.341;0.422
4.761;64.702;-0.001;0.508
4.780;64.726;-0.115;0.791
4.801;63.956;-0.115;0.791
4.801;63.849;-0.143;0.661
4.821;63.859;-0.044;0.478
4.841;63.956;-0.158;0.879
4.861;64.523;-0.158;0.879
4.861;64.428;-0.114;0.619
4.880;64.484;0.027;0.423
4.901;64.204;-0.343;0.695
4.924;64.685;-0.343;0.695
4.924;65.093;-0.030;0.766
4.941;64.768;-0.285;0.720
4.960;64.906;-0.101;0.579
4.981;64.797;-0.101;0.579
4.984;64.527;-0.271;0.451
5.001;64.607;-0.256;0.564
5.023;64.587;-0.341;0.704
5.040;65.150;-0.341;0.704
5.041;65.412;-0.129;0.732
5.060;64.876;-0.469;0.479
5.080;65.180;-0.242;0.549
5.102;64.988;-0.242;0.549
5.102;65.152;-0.144;0.639
5.122;65.187;-0.072;0.550
5.141;65.029;-0.214;0.564
5.161;64.647;-0.214;0.564
5.162;64.652;-0.254;0.657
5.191;64.351;-0.494;0.617
5.210;64.551;-0.228;0.421
5.225;64.368;-0.228;0.421
5.229;64.757;-0.058;0.760
5.251;64.560;-0.213;0.731
5.273;64.518;-0.256;0.746
5.280;64.927;-0.256;0.746
5.291;64.988;-0.073;0.467
5.310;65.456;0.239;0.663
5.330;64.881;-0.271;0.691
5.341;64.691;-0.271;0.691
5.359;64.733;-0.199;0.619
5.373;64.759;-0.158;0.579
5.390;64.815;-0.144;0.653
5.407;64.522;-0.144;0.653
5.409;64.458;-0.201;0.652
5.430;64.373;-0.186;0.467
5.451;64.618;-0.073;0.681
5.460;63.971;-0.073;0.681
5.472;63.659;-0.201;0.381
5.491;63.849;-0.114;0.546
5.510;64.050;0.027;0.620
5.523;63.676;0.027;0.620
5.529;63.420;-0.199;0.619
5.552;63.578;-0.128;0.757
5.573;63.420;-0.200;0.621
5.580;63.562;-0.200;0.621
5.590;63.626;-0.072;0.480
5.610;63.318;-0.243;0.281
5.648;63.473;-0.186;0.436
5.649;63.760;-0.186;0.436
5.656;63.995;-0.072;0.620
5.671;64.197;0.013;0.805
5.690;64.104;-0.114;0.901
5.700;63.634;-0.114;0.901
5.713;63.165;-0.472;0.795
5.730;63.153;-0.312;0.463
5.751;63.578;-0.086;0.748
5.759;64.054;-0.086;0.748
5.773;63.955;-0.143;0.690
5.792;63.925;-0.086;0.521
5.812;64.047;-0.058;0.679
5.828;63.862;-0.058;0.679
5.833;63.719;-0.257;0.834
5.850;63.529;-0.355;0.705
5.881;63.661;-0.142;0.503
5.884;63.711;-0.142;0.503
5.903;64.045;0.055;0.676
5.923;63.603;-0.228;0.492
5.940;63.888;-0.228;0.492
5.941;63.972;-0.158;0.496
5.960;64.044;-0.200;0.705
5.980;63.830;-0.285;0.508
6.002;63.922;-0.285;0.508
6.002;63.948;-0.200;0.379
6.024;63.871;-0.400;0.652
6.041;63.717;-0.470;0.522
6.061;63.529;-0.470;0.522
6.061;64.204;0.041;0.681
6.080;63.796;-0.313;0.678
6.101;63.894;-0.143;0.506
6.124;64.085;-0.143;0.506
6.124;63.953;-0.410;0.815
6.140;64.050;-0.270;0.705
6.160;63.889;-0.341;0.564
6.182;64.229;-0.341;0.564
6.183;64.680;-0.072;0.821
6.201;64.365;-0.285;0.692
6.221;64.230;-0.311;0.504
6.241;64.334;-0.311;0.504
6.242;64.433;-0.228;0.507
6.260;64.620;-0.115;0.606
6.286;64.888;0.013;0.823
6.319;64.779;0.013;0.823
6.319;64.238;-0.313;0.522
6.324;64.558;-0.016;0.478
6.340;64.395;-0.327;0.832
6.360;64.204;-0.327;0.832
6.361;64.517;0.027;0.663
6.381;64.133;-0.314;0.679
6.401;64.412;-0.073;0.681
6.422;64.896;-0.073;0.681
6.423;64.804;-0.129;0.633
6.440;64.793;-0.073;0.495
6.460;64.950;-0.030;0.689
6.482;64.775;-0.030;0.689
6.483;64.219;-0.467;0.618
6.501;64.362;-0.286;0.495
6.522;64.799;0.055;0.552
6.542;64.999;0.055;0.552
6.542;64.621;-0.299;0.634
6.560;64.627;-0.200;0.436
6.580;64.865;-0.129;0.707
6.603;64.530;-0.129;0.707
6.603;64.143;-0.368;0.533
6.624;64.355;-0.185;0.520
6.640;64.589;-0.072;0.693
6.661;64.330;-0.072;0.693
6.661;64.104;-0.342;0.850
6.680;63.861;-0.256;0.252
6.702;64.220;-0.185;0.733
6.725;63.597;-0.185;0.733
6.771;63.729;-0.030;0.650
6.779;63.634;-0.030;0.650
6.840;63.738;-0.072;0.918
6.841;63.735;-0.072;0.918
6.900;63.594;-0.072;0.918
6.909;63.490;-0.044;0.680
6.960;63.677;-0.044;0.680
6.980;63.228;-0.398;0.592
7.021;63.184;-0.398;0.592
7.051;63.625;-0.001;0.591
7.080;63.901;-0.001;0.591
7.120;63.948;-0.044;0.765
7.140;63.954;-0.044;0.765
7.190;63.636;-0.227;0.562
7.206;63.822;-0.227;0.562
7.261;64.348;0.111;0.828
7.261;64.724;0.111;0.828
7.320;64.723;0.111;0.828
7.329;64.278;-0.158;0.568
7.380;63.624;-0.158;0.568
7.402;63.766;-0.157;0.820
7.440;63.207;-0.157;0.820
7.470;63.284;0.027;0.592
7.501;62.952;0.027;0.592
7.540;63.323;0.297;0.707
7.560;63.318;0.297;0.707
7.610;62.878;-0.157;0.834
7.622;62.688;-0.157;0.834
7.682;62.651;-0.114;0.688
7.683;61.974;-0.114;0.688
7.740;62.057;-0.114;0.688
7.757;61.639;-0.370;0.479
7.800;62.214;-0.370;0.479
7.825;62.891;0.098;0.709
7.860;63.573;0.098;0.709
7.890;63.086;-0.313;0.691
7.921;62.987;-0.313;0.691
7.960;63.102;-0.172;0.607
7.980;63.884;-0.172;0.607
8.030;64.282;0.056;0.837
8.040;63.944;0.056;0.837
8.100;63.610;-0.030;0.436
8.101;64.051;-0.030;0.436
8.160;63.950;-0.030;0.436
8.175;63.591;-0.286;0.339
8.220;63.589;-0.286;0.339
8.240;64.278;0.155;0.650
8.280;63.602;0.155;0.650
8.310;63.751;0.311;0.594
8.340;63.746;0.311;0.594
8.383;63.913;0.354;0.807
8.406;64.193;0.354;0.807
8.450;63.252;-0.414;0.666
8.459;62.588;-0.414;0.666
8.520;62.934;-0.272;0.993
8.521;62.891;-0.272;0.993
8.580;62.467;-0.272;0.993
8.590;62.061;-0.313;0.379
8.640;62.633;-0.313;0.379
8.660;62.336;-0.870;0.922
8.701;61.856;-0.870;0.922
8.730;62.641;0.098;0.422
8.760;62.451;0.098;0.422
8.801;62.766;0.238;0.688
8.823;62.570;0.238;0.688
8.870;62.740;0.551;0.365
8.879;62.936;0.551;0.365
8.940;63.069;0.552;0.593
8.941;62.776;0.552;0.593
9.001;62.482;0.552;0.593
9.015;61.765;-0.072;0.576
9.060;62.341;-0.072;0.576
9.080;62.827;0.352;0.577
9.121;62.429;0.352;0.577
9.151;61.222;-0.682;0.508
9.180;61.506;-0.682;0.508
9.220;61.876;-0.412;0.620
9.240;62.028;-0.412;0.620
9.291;61.777;-0.568;0.493
9.306;61.776;-0.568;0.493
9.360;62.026;-0.499;0.778
9.361;62.065;-0.499;0.778
9.424;62.404;-0.499;0.778
9.429;62.513;-0.356;0.691
9.480;63.377;-0.356;0.691
9.502;63.426;-0.285;0.636
9.540;63.426;-0.285;0.636
9.571;64.016;0.341;0.397
9.601;64.418;0.341;0.397
9.640;64.476;0.183;0.833
9.660;64.774;0.183;0.833
9.710;64.678;0.196;0.632
9.722;64.965;0.196;0.632
9.781;65.057;0.270;0.639
9.781;64.760;0.270;0.639
9.840;64.854;0.270;0.639
9.856;64.250;-0.158;0.466
9.900;64.544;-0.158;0.466
9.922;64.972;0.097;0.689
9.960;64.483;0.097;0.689
9.990;63.913;-0.356;0.621
10.021;63.623;-0.356;0.621
10.060;63.639;-0.384;0.706
10.080;63.355;-0.384;0.706
10.130;63.324;-0.470;0.820
10.140;62.906;-0.470;0.820
10.201;62.774;-0.456;0.565
10.201;62.439;-0.456;0.565
10.260;62.681;-0.456;0.565
10.274;63.192;-0.129;0.822
10.321;63.055;-0.129;0.822
10.340;62.910;-0.212;0.728
10.380;62.909;-0.212;0.728
10.410;63.313;0.226;0.580
10.440;63.310;0.226;0.580
10.484;62.977;-0.072;0.577
10.501;62.598;-0.072;0.577
10.550;62.515;-0.200;0.677
10.559;62.839;-0.200;0.677
10.621;62.850;-0.058;0.422
10.621;63.090;-0.058;0.422
10.680;63.184;-0.058;0.422
10.691;63.220;-0.244;0.852
10.740;62.611;-0.244;0.852
10.760;62.531;-0.143;0.521
10.801;62.812;-0.143;0.521
10.829;62.642;-0.384;0.691
10.860;62.319;-0.384;0.691
10.901;62.356;-0.187;0.383
10.923;62.115;-0.187;0.383
10.970;62.503;0.027;0.633
10.979;62.742;0.027;0.633
11.041;62.662;-0.214;0.960
11.041;62.235;-0.214;0.960
11.100;62.236;-0.214;0.960
11.109;61.988;-0.157;0.436
11.160;61.988;-0.157;0.436
11.180;62.196;-0.128;0.731
11.220;62.382;-0.128;0.731
11.252;62.522;0.098;0.535
11.280;61.846;0.098;0.535
11.320;61.653;-0.144;0.665
11.340;61.652;-0.144;0.665
11.390;61.792;-0.001;0.633
11.399;62.278;-0.001;0.633
11.460;62.274;0.127;0.382
11.461;62.659;0.127;0.382
11.522;62.943;0.127;0.382
11.529;62.718;-0.129;0.493
11.580;62.530;-0.129;0.493
11.601;62.255;-0.384;0.507
11.640;62.535;-0.384;0.507
11.670;62.659;-0.386;0.724
11.701;63.223;-0.386;0.724
11.750;63.696;-0.016;0.830
11.759;64.355;-0.016;0.830
11.771;63.849;-0.241;0.377
11.790;64.469;0.197;0.594
11.810;64.340;-0.016;0.801
11.825;64.995;-0.016;0.801
11.830;64.869;-0.129;0.808
11.851;64.865;-0.044;0.618
11.870;64.685;-0.242;0.703
11.880;64.542;-0.242;0.703
11.890;64.699;-0.171;0.843
11.910;64.697;-0.072;0.631
11.931;64.390;-0.344;0.639
11.940;64.673;-0.344;0.639
11.958;64.931;-0.058;0.508
11.976;64.910;-0.143;0.650
11.994;64.801;-0.158;0.480
12.004;64.857;-0.158;0.480
12.010;64.696;-0.382;0.660
12.030;64.874;-0.242;0.691
12.052;65.002;-0.101;0.625
12.059;65.002;-0.101;0.625
12.073;65.097;-0.058;0.706
12.091;64.878;-0.186;0.578
12.110;64.928;-0.158;0.610
12.125;64.687;-0.158;0.610
12.129;64.593;-0.284;0.703
12.152;64.936;-0.016;0.762
12.171;64.696;-0.114;0.534
12.180;64.842;-0.114;0.534
12.191;64.770;-0.142;0.463
12.210;64.727;-0.358;0.838
12.230;64.924;-0.171;0.804
12.241;64.912;-0.171;0.804
12.258;64.866;-0.058;0.479
12.275;65.088;0.013;0.736
12.291;64.786;-0.214;0.662
12.305;64.273;-0.214;0.662
12.310;64.243;-0.157;0.493
12.330;64.333;-0.255;0.858
12.351;64.416;-0.157;0.805
12.359;64.282;-0.157;0.805
12.373;64.447;0.041;0.690
12.391;63.984;-0.327;0.619
12.410;64.221;-0.101;0.579
12.426;64.220;-0.101;0.579
12.430;64.463;0.069;0.663
12.451;64.058;-0.215;0.523
12.472;64.041;-0.270;0.606
12.480;63.614;-0.270;0.606
12.491;63.694;-0.171;0.549
12.510;63.750;-0.086;0.477
12.530;63.590;-0.214;0.450
12.541;63.496;-0.214;0.450
12.556;63.819;-0.101;0.791
12.579;63.618;-0.129;0.495
12.591;63.602;-0.243;0.694
12.605;64.308;-0.243;0.694
12.610;64.495;-0.058;0.649
12.630;64.445;-0.115;0.676
12.651;64.279;-0.187;0.525
12.660;63.809;-0.187;0.525
12.674;64.049;-0.072;0.718
12.691;63.662;-0.339;0.574
12.710;63.735;-0.326;0.675
12.726;63.164;-0.326;0.675
12.730;63.220;-0.243;0.607
12.751;63.562;0.098;0.524
12.773;63.445;-0.072;0.659
12.780;64.208;-0.072;0.659
12.790;64.126;-0.185;0.744
12.811;64.420;-0.015;0.925
12.830;64.211;-0.058;0.635
12.842;64.500;-0.058;0.635
12.852;64.273;-0.171;0.464
12.870;64.281;-0.171;0.478
12.890;64.538;-0.072;0.735
12.908;63.778;-0.072;0.735
12.909;63.549;-0.215;0.622
12.930;63.811;-0.016;0.677
12.951;63.433;-0.227;0.448
12.959;64.106;-0.227;0.448
12.973;64.386;-0.001;0.477
12.992;64.252;-0.157;0.562
13.011;64.023;-0.313;0.478
13.023;64.163;-0.313;0.478
13.030;64.579;-0.016;0.605
13.052;64.408;-0.143;0.565
13.072;64.306;-0.312;0.730
13.080;63.688;-0.312;0.730
13.091;63.923;-0.086;0.690
13.110;63.665;-0.201;0.468
13.133;63.729;-0.270;0.719
13.142;63.726;-0.270;0.719
13.152;64.014;-0.030;0.746
13.170;63.903;-0.058;0.605
13.190;63.849;-0.115;0.624
13.208;63.849;-0.115;0.624
13.209;63.759;-0.199;0.633
13.230;63.678;-0.298;0.690
13.251;63.840;-0.100;0.577
13.259;63.228;-0.100;0.577
13.273;63.267;-0.058;0.562
13.292;63.187;-0.101;0.508
13.310;63.362;0.055;0.504
13.323;63.177;0.055;0.504
13.330;62.917;-0.200;0.549
13.352;62.730;-0.242;0.309
13.371;63.045;-0.115;0.605
13.380;63.600;-0.115;0.605
13.392;63.418;-0.200;0.452
13.410;63.735;0.041;0.535
13.430;63.656;-0.044;0.565
13.440;62.547;-0.044;0.565
13.453;62.410;-0.243;0.707
13.471;62.468;-0.142;0.617
13.512;62.446;-0.158;0.608
13.514;62.346;-0.158;0.608
13.516;62.463;-0.058;0.619
13.529;62.013;-0.312;0.336
13.551;62.536;-0.072;0.772
13.559;62.538;-0.072;0.772
13.570;62.482;-0.044;0.623
13.590;62.591;0.083;0.563
13.610;62.063;-0.410;0.603
13.625;61.868;-0.410;0.603
13.631;62.098;-0.241;0.675
13.651;62.102;-0.172;0.551
13.674;62.155;-0.100;0.504
13.680;62.999;-0.100;0.504
13.691;62.885;-0.329;0.753
13.710;62.983;-0.100;0.477
13.730;62.826;-0.299;0.593
13.742;62.867;-0.299;0.593
13.751;63.029;-0.172;0.622
13.771;62.723;-0.440;0.620
13.791;62.980;-0.228;0.650
13.808;63.262;-0.228;0.650
13.810;63.220;-0.228;0.577
13.830;63.269;-0.185;0.576
13.851;63.467;-0.101;0.749
13.860;63.755;-0.101;0.749
13.873;63.400;-0.285;0.507
13.890;63.417;-0.326;0.619
13.910;63.615;-0.157;0.619
13.922;64.816;-0.157;0.619
13.930;64.947;-0.087;0.707
13.952;65.027;-0.044;0.761
13.973;64.826;-0.226;0.785
13.980;64.301;-0.226;0.785
13.990;64.246;-0.214;0.662
14.010;64.224;-0.157;0.505
14.030;64.272;-0.172;0.622
14.042;64.759;-0.172;0.622
14.053;64.500;-0.411;0.661
14.074;64.627;-0.257;0.565
14.090;64.839;-0.044;0.493
14.108;65.134;-0.044;0.493
14.109;64.996;-0.086;0.337
14.130;64.756;-0.328;0.423
14.152;64.921;-0.243;0.537
14.159;63.954;-0.243;0.537
14.173;64.389;-0.001;0.792
14.191;64.217;-0.030;0.552
14.210;63.785;-0.329;0.424
14.224;63.590;-0.329;0.424
14.230;63.675;-0.355;0.619
14.252;63.558;-0.355;0.422
14.272;63.700;-0.255;0.462
14.280;63.213;-0.255;0.462
14.291;63.245;-0.184;0.377
14.310;63.273;-0.326;0.703
14.330;63.420;-0.086;0.477
14.340;63.027;-0.086;0.477
14.358;62.928;-0.172;0.479
14.375;63.095;-0.086;0.593
14.391;63.085;-0.016;0.437
14.405;62.212;-0.016;0.437
14.409;62.014;-0.285;0.622
14.430;61.892;-0.386;0.610
14.452;62.328;-0.087;0.764
14.459;62.712;-0.087;0.764
14.472;62.473;-0.114;0.421
14.491;62.651;-0.072;0.634
14.510;62.432;-0.143;0.408
14.525;62.249;-0.143;0.408
14.529;62.338;-0.200;0.662
14.551;62.399;-0.073;0.523
14.573;62.672;0.084;0.680
14.580;62.087;0.084;0.680
14.590;61.871;-0.030;0.537
14.610;61.725;-0.243;0.694
14.630;61.784;-0.130;0.581
14.642;62.267;-0.130;0.581
14.654;62.442;-0.072;0.763
14.675;62.174;-0.270;0.690
14.692;62.385;-0.143;0.803
14.704;62.584;-0.143;0.803
14.711;62.080;-0.422;0.488
14.730;62.716;0.112;0.535
14.752;62.274;-0.298;0.576
14.759;63.089;-0.298;0.576
14.773;63.407;0.013;0.508
14.792;63.621;0.041;0.823
14.810;63.529;0.098;0.549
14.825;63.337;0.098;0.549
14.830;62.843;-0.385;0.651
14.851;62.898;-0.299;0.578
14.872;63.004;-0.214;0.593
14.880;63.387;-0.214;0.593
14.891;63.453;-0.072;0.422
14.910;63.511;-0.186;0.750
14.930;63.462;-0.172;0.636
14.942;63.366;-0.172;0.636
14.955;63.472;-0.072;0.620
14.975;63.089;-0.429;0.668
14.991;63.193;-0.272;0.539
15.003;62.712;-0.272;0.539
15.009;62.746;-0.271;0.594
15.030;63.130;-0.001;0.717
15.051;62.824;-0.115;0.424
15.059;63.309;-0.115;0.424
15.070;63.146;-0.284;0.478
15.090;63.334;-0.129;0.493
15.110;63.399;-0.157;0.661
15.125;62.926;-0.157;0.661
15.129;62.703;-0.370;0.691
15.151;62.746;-0.215;0.467
15.180;62.456;-0.215;0.467
15.220;62.671;-0.171;0.747
15.240;62.543;-0.171;0.747
15.290;62.350;-0.257;0.579
15.306;62.543;-0.257;0.579
15.360;62.609;-0.284;0.747
15.361;62.434;-0.284;0.747
15.420;62.434;-0.284;0.747
15.429;62.301;-0.257;0.466
15.480;62.393;-0.257;0.466
15.502;62.578;-0.187;0.654
15.540;62.577;-0.187;0.654
15.570;63.058;0.198;0.765
15.601;63.243;0.198;0.765
15.640;62.748;-0.101;0.465
15.660;62.749;-0.101;0.465
15.710;62.457;-0.328;0.395
15.732;62.631;-0.328;0.395
15.780;62.899;-0.229;0.666
15.791;63.085;-0.229;0.666
15.850;63.186;-0.058;0.506
15.851;63.041;-0.058;0.506
15.912;63.230;-0.058;0.506
15.925;63.328;-0.129;0.820
15.970;63.140;-0.129;0.820
15.990;62.912;-0.158;0.480
16.031;62.624;-0.158;0.480
16.060;62.739;-0.129;0.622
16.090;62.739;-0.129;0.622
16.130;62.812;-0.100;0.690
16.151;62.810;-0.100;0.690
16.201;62.666;-0.200;0.634
16.209;62.102;-0.200;0.634
16.270;61.870;-0.256;0.350
16.271;61.589;-0.256;0.350
16.330;61.958;-0.256;0.350
16.341;61.952;-0.384;0.578
16.390;61.951;-0.384;0.578
16.410;62.046;-0.299;0.579
16.451;62.046;-0.299;0.579
16.480;62.142;-0.101;0.367
16.510;62.331;-0.101;0.367
16.550;62.503;-0.016;0.493
16.573;62.496;-0.016;0.493
16.620;62.116;-0.342;0.479
16.629;62.593;-0.342;0.479
16.691;62.919;-0.030;0.421
16.691;63.116;-0.030;0.421
16.750;63.694;-0.030;0.421
16.759;63.644;-0.143;0.564
16.810;63.071;-0.143;0.564
16.831;63.413;0.112;0.647
16.870;63.799;0.112;0.647
16.900;63.396;-0.186;0.550
16.930;63.493;-0.186;0.550
16.970;63.859;0.069;0.661
16.990;64.000;0.069;0.661
17.040;63.537;-0.257;0.522
17.056;63.441;-0.257;0.522
17.110;63.786;0.055;0.491
17.111;63.595;0.055;0.491
17.171;63.403;0.055;0.491
17.179;62.978;-0.358;0.581
17.230;62.407;-0.358;0.581
17.252;62.556;-0.295;0.710
17.290;62.654;-0.295;0.710
17.320;62.954;-0.001;0.649
17.351;63.098;-0.001;0.649
17.390;62.835;-0.327;0.833
17.410;62.647;-0.327;0.833
17.460;62.979;0.055;0.662
17.473;62.786;0.055;0.662
17.531;62.524;-0.242;0.791
17.531;62.620;-0.242;0.791
17.590;63.283;-0.242;0.791
17.606;63.083;-0.241;0.448
17.651;63.368;-0.241;0.448
17.680;63.410;-0.285;0.606
17.710;63.698;-0.285;0.606
17.751;63.765;-0.242;0.635
17.772;63.764;-0.242;0.635
17.820;64.056;-0.001;0.649
17.829;63.574;-0.001;0.649
17.893;63.318;-0.186;0.579
17.895;64.179;-0.186;0.579
17.950;63.987;-0.186;0.579
17.959;64.101;-0.143;0.690
18.010;64.387;-0.143;0.690
18.039;64.264;-0.257;0.708
18.071;63.786;-0.257;0.708
18.103;63.712;-0.242;0.549
18.130;63.712;-0.242;0.549
18.170;63.753;-0.227;0.590
18.190;63.134;-0.227;0.590
18.240;63.074;-0.172;0.380
18.256;63.457;-0.172;0.380
18.310;63.450;-0.271;0.564
18.311;63.450;-0.271;0.564
18.370;63.018;-0.271;0.564
18.379;63.200;-0.158;0.650
18.430;63.440;-0.158;0.650
18.452;63.538;-0.129;0.760
18.490;63.443;-0.129;0.760
18.520;63.186;-0.199;0.464
18.551;63.474;-0.199;0.464
18.600;63.608;-0.171;0.635
18.609;64.090;-0.171;0.635
18.671;64.218;-0.030;0.566
18.671;64.311;-0.030;0.566
18.730;64.505;-0.030;0.566
18.741;64.122;-0.299;0.451
18.790;64.309;-0.299;0.451
18.810;64.597;-0.115;0.578
18.851;64.598;-0.115;0.578
18.880;64.383;-0.257;0.494
18.910;64.979;-0.257;0.494
18.950;65.098;-0.142;0.462
18.973;65.296;-0.142;0.462
19.022;65.282;-0.129;0.407
19.030;65.266;-0.129;0.407
19.090;65.423;-0.044;0.510
19.091;65.244;-0.044;0.510
19.150;65.152;-0.044;0.510
19.159;64.903;-0.129;0.252
19.211;64.606;-0.129;0.252
19.230;64.752;-0.143;0.537
19.270;65.437;-0.143;0.537
19.301;65.571;-0.144;0.779
19.330;65.570;-0.144;0.779
19.371;65.192;-0.297;0.434
19.390;64.896;-0.297;0.434
19.440;65.049;-0.170;0.433
19.456;64.892;-0.170;0.433
19.511;64.785;-0.340;0.605
19.511;64.901;-0.340;0.605
19.570;65.039;-0.340;0.605
19.579;65.242;-0.184;0.631
19.630;65.736;-0.184;0.631
19.652;65.882;-0.072;0.647
19.690;66.190;-0.072;0.647
19.720;66.024;-0.115;0.436
19.752;65.315;-0.115;0.436
19.790;65.471;-0.073;0.624
19.812;65.868;-0.073;0.624
19.860;65.985;0.013;0.647
19.873;65.687;0.013;0.647
19.931;65.503;-0.115;0.594
19.932;65.403;-0.115;0.594
19.992;64.951;-0.115;0.594
20.006;64.545;-0.312;0.293
20.053;64.163;-0.312;0.293
20.076;64.375;-0.297;0.631
20.110;64.514;-0.297;0.631
20.140;64.225;-0.456;0.452
20.170;64.087;-0.456;0.452
20.191;64.625;-0.200;0.848
20.210;64.592;-0.058;0.493
20.231;65.095;-0.058;0.493
20.231;65.206;-0.087;0.751
20.251;64.983;-0.243;0.693
20.273;65.176;0.041;0.421
20.290;64.665;0.041;0.421
20.292;64.615;-0.129;0.690
20.310;64.212;-0.397;0.548
20.330;64.738;-0.030;0.698
20.352;64.935;-0.030;0.698
20.352;64.795;-0.030;0.452
20.373;64.836;-0.114;0.703
20.390;64.754;-0.173;0.681
20.410;65.011;-0.173;0.681
20.411;65.007;-0.101;0.521
20.430;65.028;-0.030;0.405
20.451;65.107;-0.072;0.634
20.472;65.507;-0.072;0.634
20.473;65.534;-0.044;0.620
20.492;65.376;-0.101;0.468
20.510;65.396;-0.144;0.595
20.531;65.505;-0.144;0.595
20.532;65.340;-0.158;0.338
20.551;65.645;-0.115;0.778
20.571;65.626;-0.114;0.743
20.591;65.626;-0.114;0.743
20.592;65.697;-0.001;0.620
20.610;65.471;-0.228;0.721
20.630;65.173;-0.368;0.505
20.652;65.175;-0.368;0.505
20.652;65.282;-0.341;0.633
20.674;65.437;-0.158;0.508
20.692;65.237;-0.300;0.466
20.711;65.036;-0.300;0.466
20.711;65.570;0.013;0.724
20.730;65.095;-0.285;0.535
20.751;65.124;-0.229;0.467
20.773;65.545;-0.229;0.467
20.773;65.747;-0.101;0.537
20.793;65.592;-0.171;0.421
20.810;65.838;-0.072;0.633
20.833;65.836;-0.072;0.633
20.834;65.503;-0.325;0.603
20.851;65.586;-0.229;0.538
20.873;65.803;-0.087;0.608
20.892;65.286;-0.087;0.608
20.892;65.182;-0.157;0.577
20.910;65.448;0.141;0.396
20.930;65.131;-0.200;0.579
20.952;64.818;-0.200;0.579
20.952;64.787;-0.172;0.465
20.973;64.747;-0.285;0.635
20.991;64.777;-0.185;0.476
21.011;64.565;-0.185;0.476
21.011;64.448;-0.270;0.450
21.033;64.793;-0.086;0.674
21.051;64.501;-0.355;0.719
21.076;64.395;-0.355;0.719
21.077;64.614;-0.115;0.608
21.090;64.586;-0.186;0.706
21.110;64.595;-0.172;0.692
21.131;64.402;-0.172;0.692
21.132;64.684;-0.044;0.932
21.151;64.411;-0.143;0.649
21.174;64.584;-0.128;0.929
21.191;64.720;-0.128;0.929
21.192;64.356;-0.186;0.395
21.210;64.513;-0.087;0.469
21.230;64.762;0.041;0.647
21.251;64.472;0.041;0.647
21.252;64.674;0.254;0.564
21.273;64.162;-0.257;0.708
21.292;64.171;-0.229;0.665
21.310;64.310;-0.229;0.665
21.311;64.332;-0.227;0.701
21.330;64.291;-0.329;0.838
21.351;64.303;-0.171;0.535
21.373;64.686;-0.171;0.535
21.374;64.756;-0.073;0.453
21.391;64.978;0.013;0.671
21.410;64.511;-0.315;0.524
21.433;64.952;-0.315;0.524
21.434;64.891;-0.412;0.620
21.451;65.385;-0.044;0.722
21.471;65.159;-0.115;0.467
21.491;65.370;-0.115;0.467
21.492;65.274;-0.383;0.875
21.510;65.508;-0.072;0.622
21.530;65.335;-0.143;0.464
21.552;64.942;-0.143;0.464
21.552;64.834;-0.200;0.394
21.574;65.018;-0.215;0.750
21.591;64.928;-0.243;0.652
21.611;64.498;-0.243;0.652
21.611;64.523;-0.243;0.694
21.630;64.438;-0.115;0.281
21.651;64.415;-0.270;0.563
21.674;64.124;-0.270;0.563
21.674;64.283;-0.186;0.665
21.690;64.252;-0.129;0.493
21.710;64.283;-0.186;0.664
21.731;63.897;-0.186;0.664
21.732;63.654;-0.371;0.622
21.751;63.696;-0.341;0.634
21.774;63.821;-0.271;0.706
21.801;63.103;-0.271;0.706
21.802;63.358;-0.001;0.606
21.823;63.108;-0.157;0.492
21.840;63.107;-0.101;0.380
21.868;62.960;-0.101;0.380
21.868;63.182;-0.101;0.750
21.879;63.106;-0.143;0.705
21.902;62.826;-0.214;0.380
21.922;62.826;-0.214;0.380
21.922;62.974;-0.285;0.764
21.952;62.829;-0.284;0.520
21.973;63.197;-0.101;0.778
21.980;63.677;-0.101;0.778
21.990;63.453;-0.255;0.702
22.010;63.288;-0.341;0.592
22.030;63.579;-0.229;0.867
22.041;64.064;-0.229;0.867
22.059;63.922;-0.213;0.589
22.074;63.679;-0.355;0.464
22.092;64.076;-0.030;0.478
22.101;64.318;-0.030;0.478
22.112;63.902;-0.386;0.496
22.130;63.850;-0.401;0.439
22.152;64.205;-0.200;0.635
22.159;64.638;-0.200;0.635
22.172;64.998;0.041;0.762
22.191;64.376;-0.413;0.621
22.218;64.913;-0.044;0.792
22.225;65.601;-0.044;0.792
22.232;65.343;-0.171;0.606
22.252;65.188;-0.300;0.609
22.270;65.292;-0.215;0.609
22.280;66.063;-0.215;0.609
22.290;66.322;-0.016;0.636
22.310;66.303;-0.030;0.633
22.334;65.948;-0.327;0.648
22.342;66.504;-0.327;0.648
22.351;66.788;-0.101;0.664
22.370;66.654;-0.186;0.609
22.390;66.928;0.098;0.465
22.401;66.506;0.098;0.465
22.410;66.321;-0.129;0.637
22.430;66.171;-0.172;0.451
22.452;66.072;-0.286;0.523
22.460;66.072;-0.286;0.523
22.474;66.412;0.013;0.482
22.491;66.246;-0.228;0.720
22.510;66.188;-0.270;0.705
22.524;65.521;-0.270;0.705
22.530;65.524;-0.172;0.494
22.551;65.703;-0.086;0.634
22.570;65.666;-0.058;0.504
22.580;65.472;-0.058;0.504
22.592;65.644;-0.030;0.759
22.610;65.511;-0.143;0.763
22.630;65.552;-0.115;0.777
22.642;65.049;-0.115;0.777
22.658;64.700;-0.313;0.578
22.671;64.756;-0.186;0.408
22.692;64.914;-0.213;0.746
22.706;65.093;-0.213;0.746
22.709;65.070;-0.213;0.703
22.731;64.953;-0.200;0.466
22.752;64.928;-0.212;0.447
22.759;64.447;-0.212;0.447
22.776;64.641;-0.171;0.706
22.798;64.594;-0.157;0.592
22.811;64.426;-0.329;0.652
22.826;64.617;-0.329;0.652
22.830;64.688;-0.185;0.478
22.851;64.743;-0.199;0.605
22.871;64.802;-0.143;0.591
22.880;65.007;-0.143;0.591
22.891;64.765;-0.315;0.524
22.910;64.887;-0.271;0.649
22.934;64.837;-0.185;0.378
22.943;64.352;-0.185;0.378
22.951;64.670;-0.086;0.733
22.970;64.282;-0.325;0.547
22.991;64.557;-0.115;0.592
23.006;64.983;-0.115;0.592
23.009;65.307;0.126;0.662
23.030;65.009;-0.087;0.579
23.052;64.888;-0.228;0.661
23.060;65.443;-0.228;0.661
23.070;65.575;-0.200;0.850
23.091;65.339;-0.270;0.563
23.110;65.525;-0.172;0.692
23.128;66.304;-0.172;0.692
23.129;66.455;-0.044;0.695
23.151;66.209;-0.172;0.509
23.171;66.277;-0.100;0.478
23.179;65.913;-0.100;0.478
23.191;65.987;-0.300;1.063
23.210;65.876;-0.228;0.692
23.235;66.042;-0.030;0.564
23.240;66.355;-0.030;0.564
23.260;66.393;-0.016;0.605
23.272;66.232;-0.172;0.650
23.290;65.911;-0.327;0.394
23.302;65.441;-0.327;0.394
23.310;65.372;-0.410;0.448
23.340;65.597;-0.242;0.493
23.361;66.162;-0.242;0.493
23.362;66.179;-0.171;0.365
23.380;66.179;-0.171;0.365
23.401;65.882;-0.468;0.478
23.425;66.308;-0.468;0.478
23.426;66.740;-0.129;0.506
23.441;66.910;-0.016;0.562
23.460;66.918;-0.058;0.679
23.484;67.048;-0.058;0.679
23.485;66.878;-0.172;0.623
23.501;67.060;-0.100;0.800
23.521;66.837;-0.186;0.579
23.540;66.795;-0.186;0.579
23.541;66.810;-0.186;0.607
23.560;66.810;-0.186;0.607
23.580;66.853;-0.114;0.519
23.601;66.376;-0.114;0.519
23.602;66.343;-0.129;0.493
23.661;66.141;-0.129;0.493
23.671;66.054;-0.184;0.462
23.720;65.753;-0.184;0.462
23.740;65.584;-0.397;0.632
23.781;65.090;-0.397;0.632
23.810;65.275;-0.229;0.595
23.840;65.275;-0.229;0.595
23.880;65.035;-0.356;0.450
23.901;64.837;-0.356;0.450
23.950;65.091;-0.157;0.465
23.959;64.905;-0.157;0.465
24.021;64.886;-0.157;0.465
24.021;64.855;-0.256;0.620
24.080;64.855;-0.256;0.620
24.090;64.713;-0.312;0.491
24.140;65.008;-0.312;0.491
24.160;65.451;-0.016;0.635
24.200;65.360;-0.016;0.635
24.234;65.143;-0.200;0.648
24.260;65.837;-0.200;0.648
24.301;65.610;-0.315;0.495
24.325;65.113;-0.315;0.495
24.370;65.557;-0.016;0.635
24.380;65.238;-0.016;0.635
24.441;65.044;-0.016;0.635
24.441;64.938;-0.044;0.508
24.500;65.232;-0.044;0.508
24.509;65.344;0.041;0.523
24.560;65.231;0.041;0.523
24.590;64.814;-0.284;0.478
24.620;64.814;-0.284;0.478
24.660;65.093;-0.072;0.521
24.680;65.535;-0.072;0.521
24.730;65.362;-0.269;0.632
24.743;65.209;-0.269;0.632
24.801;65.362;-0.269;0.632
24.801;65.802;0.126;0.578
24.860;65.531;0.126;0.578
24.874;64.994;-0.312;0.547
24.920;65.141;-0.312;0.547
24.941;65.642;0.069;0.635
24.980;65.448;0.069;0.635
25.009;64.943;-0.287;0.483
25.040;64.286;-0.287;0.483
25.080;64.640;-0.128;0.774
25.101;64.354;-0.128;0.774
25.150;64.267;-0.086;0.534
25.159;64.137;-0.086;0.534
25.221;64.168;-0.157;0.732
25.221;63.299;-0.157;0.732
25.285;63.301;-0.157;0.732
25.289;63.327;-0.101;0.663
25.341;62.891;-0.101;0.663
25.360;62.846;-0.072;0.536
25.401;62.945;-0.072;0.536
25.441;62.875;-0.143;0.562
25.460;62.087;-0.143;0.562
25.510;61.990;-0.185;0.492
25.523;62.770;-0.185;0.492
25.581;63.084;0.097;0.435
25.581;63.580;0.097;0.435
25.640;63.183;0.097;0.435
25.656;62.941;-0.143;0.521
25.701;63.384;-0.143;0.521
25.723;63.767;0.084;0.691
25.760;64.059;0.084;0.691
25.790;63.809;-0.115;0.680
25.821;64.298;-0.115;0.680
25.860;64.326;-0.058;0.609
25.880;64.429;-0.058;0.609
25.931;64.603;-0.030;0.846
25.940;65.095;-0.030;0.846
26.001;65.092;-0.030;0.846
26.001;64.823;-0.142;0.617
26.060;64.712;-0.142;0.617
26.071;64.348;-0.343;0.410
26.120;64.151;-0.343;0.410
26.140;64.611;-0.058;0.607
26.181;64.616;-0.058;0.607
26.210;64.323;-0.300;0.608
26.240;63.878;-0.300;0.608
26.281;64.141;-0.129;0.707
26.311;64.729;-0.129;0.707
26.350;64.844;0.013;0.607
26.373;64.688;0.013;0.607
26.420;64.572;-0.030;0.495
26.429;64.757;-0.030;0.495
26.490;64.741;-0.030;0.495
26.491;64.594;-0.199;0.590
26.550;64.410;-0.199;0.590
26.559;64.361;-0.229;0.566
26.610;64.748;-0.229;0.566
26.640;64.640;-0.270;0.464
26.670;64.971;-0.270;0.464
26.720;65.171;-0.157;0.578
26.729;65.578;-0.157;0.578
26.791;65.519;-0.270;0.718
26.791;64.796;-0.270;0.718
26.851;64.601;-0.270;0.718
26.873;64.649;-0.129;0.507
26.910;64.216;-0.129;0.507
26.940;64.282;-0.144;0.653
26.971;63.897;-0.144;0.653
27.010;63.847;-0.087;0.452
27.030;64.043;-0.087;0.452
27.080;63.821;-0.271;0.452
27.094;64.306;-0.271;0.452
27.151;63.869;-0.271;0.452
27.151;63.954;-0.243;0.537
27.210;63.949;-0.243;0.537
27.228;64.143;-0.086;0.550
27.270;64.632;-0.086;0.550
27.296;64.503;-0.214;0.594
27.331;64.699;-0.214;0.594
27.361;64.946;0.013;0.549
27.400;65.707;0.013;0.549
27.440;65.420;-0.214;0.536
27.460;65.420;-0.214;0.536
27.511;65.666;-0.170;0.883
27.523;65.867;-0.170;0.883
27.581;65.093;-0.170;0.883
27.582;64.955;-0.101;0.493
27.641;65.096;-0.101;0.493
27.656;65.001;-0.284;0.719
27.701;64.672;-0.284;0.719
27.723;64.941;0.041;0.491
27.760;64.942;0.041;0.491
27.790;64.780;-0.030;0.366
27.821;64.971;-0.030;0.366
27.864;65.046;-0.115;0.676
27.880;64.291;-0.115;0.676
27.930;64.069;-0.342;0.762
27.940;63.874;-0.342;0.762
28.001;63.388;-0.342;0.762
28.001;63.318;-0.257;0.479
28.060;63.319;-0.257;0.479
28.074;63.463;-0.143;0.494
28.120;63.463;-0.143;0.494
28.141;63.480;-0.129;0.494
28.180;63.765;-0.129;0.494
28.210;63.771;-0.256;0.760
28.240;63.674;-0.256;0.760
28.280;63.535;-0.271;0.551
28.301;63.109;-0.271;0.551
28.350;63.466;-0.087;0.792
28.359;63.701;-0.087;0.792
28.421;63.793;-0.087;0.792
28.421;63.523;-0.200;0.550
28.480;63.664;-0.200;0.550
28.490;63.639;-0.172;0.452
28.540;64.207;-0.172;0.452
28.570;64.490;-0.058;0.718
28.601;64.308;-0.058;0.718
28.640;64.213;-0.087;0.611
28.660;64.508;-0.087;0.611
28.710;64.354;-0.243;0.664
28.723;64.347;-0.243;0.664
28.781;64.478;-0.001;0.394
28.781;64.962;-0.001;0.394
28.840;65.073;-0.001;0.394
28.859;65.233;0.027;0.622
28.901;65.236;0.027;0.622
28.923;65.063;-0.143;0.679
28.960;65.174;-0.143;0.679
28.990;65.060;-0.173;0.539
29.021;65.060;-0.173;0.539
29.060;65.515;0.041;0.893
29.080;65.417;0.041;0.893
29.131;64.895;-0.185;0.449
29.140;64.591;-0.185;0.449
29.202;64.210;-0.185;0.449
29.204;64.493;-0.129;0.821
29.261;63.818;-0.129;0.821
29.273;63.876;0.027;0.604
29.320;64.062;0.027;0.604
29.341;63.941;-0.016;0.481
29.380;64.609;-0.016;0.481
29.410;64.365;-0.171;0.379
29.442;64.077;-0.171;0.379
29.480;64.394;-0.129;0.848
29.501;64.066;-0.129;0.848
29.550;64.019;-0.072;0.650
29.559;64.777;-0.072;0.650
29.621;64.594;-0.072;0.650
29.621;64.554;-0.058;0.549
29.680;65.136;-0.058;0.549
29.691;65.081;-0.173;0.696
29.740;65.480;-0.173;0.696
29.760;65.309;-0.228;0.507
29.800;65.309;-0.228;0.507
29.830;65.520;-0.072;0.549
29.860;64.843;-0.072;0.549
29.900;64.422;-0.413;0.522
29.923;64.421;-0.413;0.522
29.970;64.724;-0.200;0.606
29.990;64.724;-0.200;0.606
30.041;64.605;-0.299;0.607
30.056;64.605;-0.299;0.607
30.111;64.312;-0.299;0.607
30.111;64.785;0.041;0.721
30.170;63.910;0.041;0.721
30.179;63.491;-0.200;0.493
30.230;63.491;-0.200;0.493
30.260;63.533;-0.258;0.680
30.290;63.630;-0.258;0.680
30.330;63.562;-0.325;0.700
30.351;63.467;-0.325;0.700
30.400;63.625;-0.199;0.716
30.409;63.338;-0.199;0.716
30.471;63.623;-0.199;0.716
30.471;63.717;-0.044;0.567
30.531;63.526;-0.044;0.567
30.542;63.358;-0.200;0.592
30.590;64.411;-0.200;0.592
30.610;64.235;-0.342;0.578
30.650;65.107;-0.342;0.578
30.680;65.258;-0.228;0.607
30.710;64.965;-0.228;0.607
30.751;65.008;-0.187;0.595
30.773;64.431;-0.187;0.595
30.820;64.643;-0.058;0.702
30.829;65.220;-0.058;0.702
30.891;65.513;-0.058;0.702
30.891;65.434;-0.086;0.619
30.950;65.254;-0.086;0.619
30.959;65.325;-0.001;0.564
31.010;65.325;-0.001;0.564
31.040;65.034;-0.271;0.622
31.070;64.405;-0.271;0.622
31.110;64.517;-0.158;0.580
31.130;64.224;-0.158;0.580
31.181;64.281;-0.157;0.676
31.190;64.682;-0.157;0.676
31.251;65.270;-0.157;0.676
31.251;65.329;-0.044;0.535
31.310;65.811;-0.044;0.535
31.321;65.501;-0.272;0.481
31.370;65.879;-0.272;0.481
31.390;65.761;-0.328;0.395
31.431;66.235;-0.328;0.395
31.460;66.557;-0.229;0.764
31.490;66.195;-0.229;0.764
31.532;66.064;-0.173;0.397
31.551;66.064;-0.173;0.397
31.600;66.209;-0.115;0.536
31.610;66.283;-0.115;0.536
31.671;65.797;-0.115;0.536
31.671;65.535;-0.357;0.580
31.730;65.535;-0.357;0.580
31.740;65.671;-0.227;0.548
31.790;65.011;-0.227;0.548
31.810;64.918;-0.328;0.594
31.850;65.111;-0.328;0.594
31.890;65.212;-0.228;0.563
31.910;65.212;-0.228;0.563
31.960;64.945;-0.428;0.509
31.973;65.295;-0.428;0.509
32.031;65.536;-0.356;0.791
32.032;65.536;-0.356;0.791
32.090;65.750;-0.356;0.791
32.106;65.895;-0.171;0.648
32.151;66.268;-0.171;0.648
32.173;65.956;-0.329;0.424
32.210;66.086;-0.329;0.424
32.240;66.454;-0.101;0.593
32.271;66.454;-0.101;0.593
32.310;66.441;-0.129;0.634
32.330;65.820;-0.129;0.634
32.381;65.874;-0.129;0.732
32.390;65.011;-0.129;0.732
32.451;64.772;-0.271;0.607
32.451;64.954;-0.271;0.607
32.510;64.818;-0.271;0.607
32.520;64.710;-0.340;0.562
32.570;64.710;-0.340;0.562
32.592;65.036;-0.086;0.605
32.631;64.660;-0.086;0.605
32.660;64.384;-0.228;0.423
32.700;64.384;-0.228;0.423
32.730;64.710;-0.058;0.636
32.760;64.907;-0.058;0.636
32.800;64.844;-0.129;0.676
32.823;65.319;-0.129;0.676
32.871;65.127;-0.257;0.608
32.879;65.989;-0.257;0.608
32.941;66.297;-0.073;0.765
32.941;65.535;-0.073;0.765
33.001;65.414;-0.073;0.765
33.009;65.449;-0.001;0.675
33.060;65.449;-0.001;0.675
33.080;65.015;-0.200;0.324
33.120;66.067;-0.200;0.324
33.160;66.187;-0.214;0.578
33.180;66.015;-0.214;0.578
33.231;65.780;-0.429;0.624
33.240;65.780;-0.429;0.624
33.300;65.356;-0.429;0.624
33.309;65.511;-0.299;0.620
33.360;65.018;-0.299;0.620
33.380;65.298;-0.072;0.635
33.420;66.272;-0.072;0.635
33.450;66.203;-0.129;0.634
33.480;66.029;-0.129;0.634
33.520;65.929;-0.186;0.578
33.540;66.104;-0.186;0.578
33.590;66.133;-0.086;0.407
33.613;65.169;-0.086;0.407
33.662;65.424;-0.001;0.678
33.677;65.425;-0.001;0.678
33.730;65.131;-0.001;0.678
33.741;64.830;-0.285;0.749
33.790;65.011;-0.285;0.749
33.811;64.946;-0.298;0.661
33.850;64.965;-0.298;0.661
33.881;65.028;-0.313;0.804
33.921;64.834;-0.313;0.804
33.950;64.664;-0.326;0.534
33.980;65.152;-0.326;0.534
34.020;65.318;-0.242;0.649
34.040;65.318;-0.242;0.649
34.090;65.277;-0.257;0.607
34.106;65.473;-0.257;0.607
34.161;65.554;-0.257;0.607
34.161;65.693;-0.170;0.673
34.220;65.499;-0.170;0.673
34.241;65.024;-0.471;0.467
34.282;65.135;-0.471;0.467
34.310;65.483;-0.242;0.592
34.340;65.955;-0.242;0.592
