time;azimuth;pitch;roll
0.018;56.859;-0.216;-0.865
0.045;56.719;-0.216;-0.865
0.08;57.032;-0.429;-0.858
0.096;57.045;-0.429;-0.858
0.15;56.724;-0.215;-0.858
0.22;55.982;0;-0.432
0.223;55.913;0;-0.432
0.29;55.9;0;-0.42
0.29;55.776;0;-0.42
0.359;56.875;-0.436;-0.871
0.423;57.054;-0.436;-0.871
0.43;57.026;-0.428;-0.855
0.49;56.861;-0.428;-0.855
0.499;56.546;-0.215;-0.858
0.569;56.884;-0.434;-0.868
0.635;56.924;-0.434;-0.868
0.646;56.063;0;-0.651
0.69;55.953;0;-0.651
0.71;55.841;0.214;-0.855
0.78;55.41;0.216;-0.432
0.823;55.309;0.216;-0.432
0.85;55.954;-0.215;-0.431
0.89;56.037;-0.215;-0.431
0.919;56.467;-0.215;-0.862
0.99;56.587;-0.434;-0.651
1.024;56.56;-0.434;-0.651
1.06;56.225;-0.215;-0.646
1.089;56.24;-0.215;-0.646
1.129;56.555;-0.428;-0.641
1.2;56.565;-0.431;-0.646
1.227;56.609;-0.431;-0.646
1.269;56.286;-0.216;-0.649
1.29;56.538;-0.216;-0.649
1.413;57.069;-0.429;-0.858
1.43;56.958;-0.429;-0.858
1.48;55.779;0.215;-0.646
1.491;55.835;0.215;-0.646
1.55;56.579;0;-1.073
1.621;56.476;-0.215;-0.644
1.624;56.685;-0.215;-0.644
1.69;56.909;-0.217;-0.868
1.691;56.902;-0.217;-0.868
1.76;57.423;-0.429;-1.073
1.825;57.535;-0.429;-1.073
1.829;56.246;0;-0.431
1.891;56.148;0;-0.431
1.902;56.916;-0.217;-0.868
1.97;57.018;-0.429;-0.644
2.025;56.972;-0.429;-0.644
2.039;57.194;-0.432;-0.865
2.09;56.972;-0.432;-0.865
2.111;56.426;-0.215;-0.646
2.179;56.43;-0.216;-0.649
2.223;56.582;-0.216;-0.649
2.251;56.256;0;-0.649
2.29;56.269;0;-0.649
2.32;57.353;-0.434;-1.085
2.389;56.591;-0.215;-0.646
2.425;56.354;-0.215;-0.646
2.459;56.471;0;-1.089
2.491;56.662;0;-1.089
2.531;56.971;-0.215;-1.077
2.6;56.761;-0.215;-0.862
2.639;56.69;-0.215;-0.862
2.67;55.832;0.215;-0.646
2.692;56.012;0.215;-0.646
2.74;56.333;0;-0.646
2.81;57.198;-0.432;-0.865
2.825;57.212;-0.432;-0.865
2.88;57.096;-0.216;-1.081
2.891;57.219;-0.216;-1.081
2.95;56.807;-0.218;-0.654
3.021;56.474;0;-0.649
3.024;56.349;0;-0.649
3.09;56.666;-0.215;-0.644
3.091;56.473;-0.215;-0.644
3.167;56.362;0;-0.855
3.225;56.416;0;-0.855
3.229;55.995;0;-0.432
3.293;55.828;0;-0.432
3.3;56.259;0;-0.862
3.37;56.687;-0.429;-0.644
3.426;56.73;-0.429;-0.644
3.442;56.614;-0.214;-0.855
3.493;56.571;-0.214;-0.855
3.51;56.791;-0.215;-1.077
3.584;56.904;-0.431;-0.862
3.626;56.964;-0.431;-0.862
3.651;56.425;-0.215;-0.646
3.693;56.62;-0.215;-0.646
3.72;56.837;-0.216;-0.865
3.83;56.866;-0.216;-0.865
3.86;56.318;0;-0.641
3.894;56.553;0;-0.641
3.93;56.344;0;-0.432
4.003;56.891;-0.217;-0.651
4.04;56.963;-0.217;-0.651
4.07;56.728;0.215;-1.073
4.091;56.645;0.215;-1.073
4.14;56.87;-0.215;-0.646
4.21;56.874;-0.216;-0.649
4.224;56.831;-0.216;-0.649
4.281;57.039;-0.215;-0.862
4.301;57.154;-0.215;-0.862
4.35;57.69;-0.431;-1.077
4.421;57.158;-0.216;-0.865
4.425;57.251;-0.216;-0.865
4.489;56.925;0;-0.865
4.491;56.65;0;-0.865
4.56;56.641;0;-0.855
4.626;56.823;0;-0.855
4.63;57.688;-0.429;-1.073
4.692;57.492;-0.429;-1.073
4.699;56.42;0;-0.646
4.83;56.532;0;-0.646
4.848;57.62;-0.432;-1.081
4.894;57.562;-0.432;-1.081
4.91;57.013;-0.215;-0.858
4.98;56.582;-0.214;-0.428
5.027;56.694;-0.214;-0.428
5.052;56.919;-0.216;-0.649
5.091;56.877;-0.216;-0.649
5.121;57.306;-0.217;-1.085
5.19;57.199;-0.429;-0.644
5.226;57.127;-0.429;-0.644
5.261;56.686;0;-0.858
5.292;56.824;0;-0.858
5.33;57.033;0;-1.073
5.429;56.989;0;-1.073
5.47;57.444;-0.434;-0.868
5.493;57.655;-0.434;-0.868
5.54;57.849;-0.431;-1.077
5.613;57.113;-0.217;-0.651
5.648;56.764;-0.217;-0.651
5.68;56.325;0.215;-0.862
5.693;56.448;0.215;-0.862
5.753;56.885;-0.216;-0.649
5.82;56.881;-0.215;-0.646
5.826;56.759;-0.215;-0.646
5.893;56.756;-0.215;-0.644
5.895;56.589;-0.215;-0.644
5.96;57.226;-0.216;-1.297
6.03;57.119;-0.216;-1.297
6.031;56.267;0.215;-1.077
6.092;56.24;0.215;-1.077
6.101;55.707;0.428;-0.855
6.17;56.669;-0.215;-0.862
6.226;56.599;-0.215;-0.862
6.242;56.604;-0.216;-0.865
6.293;56.521;-0.216;-0.865
6.31;56.525;-0.217;-0.868
6.384;56.299;-0.215;-0.644
6.426;56.631;-0.215;-0.644
6.451;56.52;0;-0.858
6.493;56.274;0;-0.858
6.52;56.064;0;-0.649
6.593;56.274;0;-0.858
6.626;56.409;0;-0.858
6.66;56.735;-0.215;-0.862
6.695;56.737;-0.215;-0.862
6.73;56.197;0;-0.646
6.806;56.2;0;-0.649
6.826;56.241;0;-0.649
6.87;56.565;-0.215;-0.646
6.893;56.535;-0.215;-0.646
6.94;56.748;-0.215;-0.862
7.01;57.205;-0.651;-0.651
7.027;57.063;-0.651;-0.651
7.082;56.294;0;-0.868
7.093;56.239;0;-0.868
7.149;56.022;0;-0.651
7.223;56.236;0;-0.865
7.225;56.29;0;-0.865
7.29;56.395;-0.215;-0.646
7.291;56.604;-0.215;-0.646
7.361;56.276;0;-0.644
7.426;56.235;0;-0.644
7.429;56.562;-0.215;-0.646
7.493;56.687;-0.215;-0.646
7.502;56.904;-0.216;-0.865
7.57;56.58;0;-0.865
7.628;56.471;0;-0.865
7.645;57.318;-0.429;-1.073
7.694;57.21;-0.429;-1.073
7.71;57.222;-0.432;-1.081
7.784;56.57;0;-1.077
7.827;56.75;0;-1.077
7.854;56.754;0;-1.081
7.894;56.658;0;-1.081
7.92;56.972;-0.215;-1.073
7.99;56.881;-0.431;-0.646
8.027;56.726;-0.431;-0.646
8.061;56.622;-0.217;-0.868
8.092;56.634;-0.217;-0.868
8.13;56.085;0;-0.644
8.201;56.842;-0.216;-1.081
8.239;56.775;-0.216;-1.081
8.27;56.765;-0.215;-1.073
8.293;56.667;-0.215;-1.073
8.34;56.678;-0.216;-1.081
8.41;56.356;0;-1.081
8.426;56.546;0;-1.081
8.48;56.861;-0.215;-1.077
8.493;56.972;-0.215;-1.077
8.55;56.872;-0.429;-0.644
8.621;56.444;0;-0.865
8.626;56.225;0;-0.865
8.693;56.873;-0.432;-0.865
8.695;57.065;-0.432;-0.865
8.76;56.526;-0.216;-0.649
8.829;56.543;-0.216;-0.649
8.83;56.871;-0.432;-0.649
8.894;56.872;-0.432;-0.649
8.902;56.427;0;-0.858
8.971;56.213;0;-0.644
9.028;56.28;0;-0.644
9.041;56.81;-0.214;-0.855
9.093;56.894;-0.214;-0.855
9.11;57.228;-0.431;-0.862
9.18;56.687;-0.215;-0.644
9.227;56.714;-0.215;-0.644
9.252;57.051;-0.432;-0.649
9.293;56.969;-0.432;-0.649
9.321;56.853;-0.216;-0.865
9.39;56.849;-0.215;-0.862
9.428;57.057;-0.215;-0.862
9.46;56.416;0.218;-0.871
9.494;56.196;0.218;-0.871
9.53;56.845;-0.217;-0.868
9.6;56.515;0;-0.865
9.638;56.569;0;-0.865
9.67;56.685;-0.217;-0.651
9.694;56.615;-0.217;-0.651
9.743;56.927;-0.428;-0.641
9.817;56.941;-0.432;-0.649
9.835;56.803;-0.432;-0.649
9.88;56.587;-0.432;-0.432
9.894;56.671;-0.432;-0.432
9.95;56.234;0;-0.654
10.021;56.229;0;-0.649
10.028;56.257;0;-0.649
10.09;56.367;-0.216;-0.432
10.092;56.395;-0.216;-0.432
10.161;56.067;0;-0.432
10.227;56.165;0;-0.432
10.229;57.24;-0.431;-0.862
10.294;57.396;-0.431;-0.862
10.302;56.742;0;-0.858
10.37;56.862;-0.216;-0.649
10.428;56.861;-0.216;-0.649
10.445;57.069;-0.215;-0.862
10.494;57.182;-0.215;-0.862
10.51;56.97;-0.215;-0.646
10.58;57.39;-0.215;-1.077
10.628;57.352;-0.215;-1.077
10.652;56.934;-0.216;-0.649
10.694;56.865;-0.216;-0.649
10.721;56.861;-0.215;-0.646
10.79;57.611;-0.431;-1.077
10.829;57.531;-0.431;-1.077
10.86;56.783;-0.216;-0.649
10.895;56.699;-0.216;-0.649
11.004;56.901;-0.214;-0.855
11.036;56.789;-0.214;-0.855
11.07;57.53;-0.427;-1.283
11.093;57.432;-0.427;-1.283
11.141;56.704;-0.216;-0.865
11.21;56.695;-0.215;-0.858
11.227;56.858;-0.215;-0.858
11.281;56.653;-0.216;-0.649
11.294;56.54;-0.216;-0.649
11.35;57.071;-0.429;-0.858
11.42;56.533;-0.215;-0.644
11.427;56.631;-0.215;-0.644
11.493;57.062;-0.216;-1.081
11.495;57.143;-0.216;-1.081
11.56;56.069;0.215;-0.644
11.629;56.097;0.215;-0.644
11.63;57.285;-0.432;-0.865
11.695;57.217;-0.432;-0.865
11.699;56.671;-0.215;-0.644
11.771;57.419;-0.431;-1.077
11.829;57.526;-0.431;-1.077
11.841;56.679;0;-0.868
11.895;56.773;0;-0.868
11.91;57.085;-0.215;-0.858
11.984;56.77;0;-0.865
12.029;56.649;0;-0.865
12.051;56.549;-0.217;-0.434
12.094;56.673;-0.217;-0.434
12.12;56.768;0;-0.862
12.193;56.884;-0.216;-0.649
12.227;56.925;-0.216;-0.649
12.26;57.126;-0.215;-0.858
12.296;57.002;-0.215;-0.858
12.33;57.007;-0.215;-0.862
12.403;57.65;-0.644;-0.858
12.432;57.544;-0.644;-0.858
12.47;56.688;-0.215;-0.646
12.495;56.743;-0.215;-0.646
12.54;57.279;-0.431;-0.862
12.613;56.739;-0.215;-0.644
12.634;56.617;-0.215;-0.644
12.68;56.296;0;-0.646
12.695;56.201;0;-0.646
12.75;57.165;-0.217;-1.302
12.821;56.63;0;-1.081
12.829;56.59;0;-1.081
12.89;56.486;-0.216;-0.649
12.895;56.277;-0.216;-0.649
12.962;56.484;-0.215;-0.858
13.029;56.289;-0.215;-0.858
13.029;55.754;0;-0.644
13.097;55.809;0;-0.644
13.17;56.353;-0.216;-0.865
13.228;56.42;-0.216;-0.865
13.24;56.622;-0.215;-1.073
13.294;56.691;-0.215;-1.073
13.312;56.485;-0.215;-0.862
13.38;56.158;0;-0.855
13.428;56.309;0;-0.855
13.45;56.321;0;-0.868
13.494;56.432;0;-0.868
13.519;56.535;-0.215;-0.646
13.589;56.531;-0.215;-0.644
13.63;56.503;-0.215;-0.644
13.659;56.72;-0.215;-0.862
13.695;56.805;-0.215;-0.862
13.73;56.801;-0.215;-0.858
13.8;56.592;-0.215;-0.646
13.83;56.718;-0.215;-0.646
13.87;56.833;-0.431;-0.431
13.895;56.876;-0.431;-0.431
13.94;56.977;-0.216;-0.865
14.009;56.642;0;-0.855
14.028;56.698;0;-0.855
14.08;56.273;0;-0.431
14.096;56.218;0;-0.431
14.149;56.975;-0.215;-0.862
14.22;57.185;-0.215;-1.077
14.227;57.337;-0.215;-1.077
14.289;57.124;-0.215;-0.858
14.294;57.038;-0.215;-0.858
14.359;56.711;0;-0.855
14.431;56.861;0;-0.855
14.432;56.334;0.217;-0.651
14.495;56.195;0.217;-0.651
14.501;57.047;-0.214;-0.855
14.57;57.378;-0.429;-0.858
14.629;57.352;-0.429;-0.858
14.645;56.81;-0.214;-0.641
14.696;56.853;-0.214;-0.641
14.71;57.397;-0.429;-0.858
14.784;56.75;0;-0.865
14.829;56.693;0;-0.865
14.851;56.476;0;-0.646
14.896;56.504;0;-0.646
14.92;57.053;-0.217;-0.868
14.993;56.504;0;-0.646
15.03;56.24;0;-0.646
15.06;56.453;0;-0.858
15.095;56.398;0;-0.858
15.13;56.508;-0.215;-0.644
15.203;56.398;0;-0.858
15.243;56.4;0;-0.858
15.27;56.514;-0.215;-0.646
15.296;56.849;-0.215;-0.646
15.34;56.739;0;-0.865
15.411;57.062;-0.215;-0.862
15.43;57.031;-0.215;-0.862
15.48;57.364;-0.432;-0.865
15.496;57.43;-0.432;-0.865
15.551;56.772;0;-0.862
15.62;57.19;0;-1.292
15.629;57.114;0;-1.292
15.693;56.82;-0.219;-0.656
15.697;57.013;-0.219;-0.656
15.76;56.877;0;-0.855
15.832;57.522;-0.426;-0.852
15.834;57.572;-0.426;-0.852
15.898;57.683;-0.426;-0.852
15.899;57.046;0;-0.862
15.974;56.835;0;-0.646
16.031;56.764;0;-0.646
16.041;56.762;0;-0.644
16.095;56.623;0;-0.644
16.11;57.278;-0.431;-0.646
16.184;56.954;-0.216;-0.649
16.229;56.93;-0.216;-0.649
16.251;57.138;-0.215;-0.862
16.296;57.125;-0.215;-0.862
16.32;57.034;-0.432;-0.432
16.393;56.913;-0.215;-0.646
16.43;56.857;-0.215;-0.646
16.46;56.639;-0.215;-0.429
16.498;56.375;-0.215;-0.429
16.53;56.812;-0.216;-0.865
16.603;56.48;0;-0.858
16.637;56.495;0;-0.858
16.67;56.178;0.216;-0.865
16.702;56.095;0.216;-0.865
16.74;56.957;-0.216;-1.081
16.84;57.15;-0.216;-1.081
16.879;57.05;-0.431;-0.646
16.897;56.994;-0.431;-0.646
16.951;56.668;-0.216;-0.649
17.02;56.335;0;-0.644
17.03;56.599;0;-0.644
17.093;57.146;-0.216;-0.865
17.096;57.134;-0.216;-0.865
17.16;57.126;-0.215;-0.858
17.232;57.111;-0.215;-0.858
17.233;57.204;0;-1.287
17.296;57.327;0;-1.287
17.299;56.699;0;-0.646
17.371;57.46;-0.217;-1.085
17.43;57.403;-0.217;-1.085
17.442;57.068;0;-1.077
17.497;57.109;0;-1.077
17.51;57.01;-0.215;-0.644
17.584;58.092;-0.646;-1.077
17.631;58.023;-0.646;-1.077
17.651;57.147;-0.214;-0.855
17.698;57.134;-0.214;-0.855
17.721;57.143;-0.215;-0.862
17.79;57.543;-0.213;-1.278
17.833;57.36;-0.213;-1.278
17.86;57.17;-0.215;-1.077
17.899;57.193;-0.215;-1.077
17.93;56.663;0;-0.865
18.003;56.341;0.216;-0.865
18.039;56.506;0.216;-0.865
18.07;57.264;-0.429;-0.644
18.096;57.179;-0.429;-0.644
18.14;56.855;-0.215;-0.646
18.211;56.204;0.215;-0.644
18.249;56.204;0.215;-0.644
18.28;56.742;0;-0.862
18.297;56.757;0;-0.862
18.351;56.77;0;-0.875
18.42;56.328;0;-0.432
18.43;56.301;0;-0.432
18.493;57.182;-0.434;-0.651
18.498;57.307;-0.434;-0.651
18.559;56.968;-0.215;-0.646
18.633;56.643;0;-0.649
18.635;56.685;0;-0.649
18.699;56.422;0;-0.649
18.699;57.283;-0.429;-0.858
18.771;57.289;-0.431;-0.862
18.832;57.203;-0.431;-0.862
18.841;56.665;-0.216;-0.649
18.899;56.735;-0.216;-0.649
18.91;56.94;-0.215;-0.858
18.984;56.082;0.215;-0.646
19.032;55.999;0.215;-0.646
19.051;56.321;0;-0.644
19.097;56.32;0;-0.644
19.12;56.644;-0.215;-0.644
19.19;56.325;0;-0.649
19.232;56.284;0;-0.649
19.26;56.503;0;-0.868
19.298;56.379;0;-0.868
19.33;56.816;-0.432;-0.649
19.434;56.786;-0.432;-0.649
19.47;56.781;-0.431;-0.646
19.5;57.057;-0.431;-0.646
19.54;56.946;-0.216;-0.865
19.611;56.625;0;-0.868
19.635;56.599;0;-0.868
19.68;56.057;0.216;-0.649
19.701;56.043;0.216;-0.649
19.771;56.365;0;-0.646
19.819;56.9;-0.215;-0.858
19.832;57.077;-0.215;-0.858
19.889;56.656;-0.215;-0.431
19.91;56.81;-0.215;-0.431
19.959;57.239;-0.216;-0.865
20.029;57.234;-0.215;-0.862
20.032;57.218;-0.215;-0.862
20.097;57.241;-0.215;-0.862
20.105;57.028;-0.215;-0.644
20.172;57.241;-0.215;-0.862
20.231;57.449;-0.215;-0.862
20.24;57.24;-0.215;-0.646
20.297;57.184;-0.215;-0.646
20.38;57.181;-0.215;-0.644
20.431;57.209;-0.215;-0.644
20.451;57.421;-0.215;-0.862
20.499;57.307;-0.215;-0.862
20.521;57.095;-0.215;-0.644
20.59;57.518;-0.216;-1.081
20.633;57.423;-0.216;-1.081
20.662;57.006;-0.216;-0.649
20.699;56.8;-0.216;-0.649
20.734;56.478;0;-0.651
20.8;56.8;-0.216;-0.649
20.836;57.091;-0.216;-0.649
20.87;57.314;-0.219;-0.875
20.901;57.331;-0.219;-0.875
20.94;57.833;-0.427;-1.069
21.013;57.318;-0.216;-0.865
21.034;57.219;-0.216;-0.865
21.08;57.002;-0.215;-0.644
21.098;56.906;-0.215;-0.644
21.15;56.585;0;-0.646
21.22;57.333;-0.216;-1.081
21.231;57.387;-0.216;-1.081
21.293;57.171;-0.215;-0.858
21.36;57.179;-0.216;-0.865
21.433;57.057;0;-1.073
21.435;57.056;0;-1.073
21.499;57.206;0;-1.073
21.5;57.85;-0.429;-1.073
21.57;57.12;-0.216;-0.649
21.635;56.829;-0.216;-0.649
21.641;57.157;-0.432;-0.649
21.7;57.073;-0.432;-0.649
21.709;56.849;0;-1.085
21.781;56.631;0;-0.862
21.833;56.562;0;-0.862
21.852;56.893;-0.217;-0.868
21.9;56.975;-0.217;-0.868
21.924;57.175;-0.215;-1.077
21.99;56.962;-0.215;-0.858
22.035;57.019;-0.215;-0.858
22.06;56.816;-0.216;-0.649
22.099;56.759;-0.216;-0.649
22.134;56.542;-0.215;-0.431
22.2;56.756;-0.215;-0.646
22.234;56.841;-0.215;-0.646
22.27;56.833;-0.214;-0.641
22.301;56.736;-0.214;-0.641
22.34;56.861;-0.432;-0.432
22.413;56.75;-0.217;-0.651
22.434;56.695;-0.217;-0.651
22.48;56.687;-0.215;-0.646
22.501;56.881;-0.215;-0.646
22.554;56.557;0;-0.646
22.62;57.083;-0.214;-0.855
22.652;57.057;-0.214;-0.855
22.69;56.42;0.215;-0.858
22.706;56.366;0.215;-0.858
22.76;56.804;-0.216;-0.649
22.831;57.66;-0.644;-0.858
22.844;57.491;-0.644;-0.858
22.9;56.637;-0.216;-0.649
22.901;56.583;-0.216;-0.649
22.971;56.906;-0.431;-0.646
23.034;56.85;-0.431;-0.646
23.039;57.072;-0.434;-0.868
23.099;57.309;-0.434;-0.868
23.109;56.971;-0.215;-0.862
23.181;57.092;-0.432;-0.649
23.233;56.897;-0.432;-0.649
23.256;57.104;-0.431;-0.862
23.299;57.169;-0.431;-0.862
23.322;56.205;0.217;-0.868
23.39;56.844;-0.215;-0.862
23.435;56.719;-0.215;-0.862
23.46;56.391;0;-0.855
23.499;56.42;0;-0.855
23.534;56.536;-0.215;-0.646
23.6;55.991;0;-0.428
23.638;56.032;0;-0.428
23.67;56.576;-0.215;-0.646
23.703;56.619;-0.215;-0.646
23.74;56.508;0;-0.862
23.813;56.615;-0.215;-0.644
23.835;56.741;-0.215;-0.644
23.88;56.206;0;-0.434
23.901;55.983;0;-0.434
23.95;57.27;-0.431;-1.077
24.021;57.078;-0.436;-0.871
24.044;57.313;-0.436;-0.871
24.09;56.974;-0.216;-0.865
24.099;56.783;-0.216;-0.865
24.163;56.778;-0.215;-0.862
24.23;56.565;-0.215;-0.646
24.238;56.647;-0.215;-0.646
24.303;55.999;0.215;-0.644
24.305;56.013;0.215;-0.644
24.37;56.119;0;-0.431
24.433;56.176;0;-0.431
24.44;56.927;-0.215;-0.862
24.501;56.818;-0.215;-0.862
24.51;56.493;0;-0.858
24.58;57.143;-0.431;-0.862
24.633;57.055;-0.431;-0.862
24.67;56.733;-0.215;-0.862
24.7;56.815;-0.215;-0.862
24.722;57.345;-0.431;-1.077
24.79;56.382;0.214;-1.069
24.833;56.341;0.214;-1.069
24.871;56.456;0;-0.865
24.901;56.592;0;-0.865
24.931;57.447;-0.432;-1.081
24.999;56.919;-0.217;-0.868
25.033;56.84;-0.217;-0.868
25.069;56.191;-0.217;-0.217
25.102;56.148;-0.217;-0.217
25.14;56.908;-0.432;-0.649
25.21;56.573;-0.215;-0.644
25.235;56.447;-0.215;-0.644
25.279;56.454;-0.216;-0.649
25.301;56.578;-0.216;-0.649
25.349;56.675;0;-1.077
25.42;56.464;0;-0.862
25.435;56.41;0;-0.862
25.489;56.413;0;-0.865
25.502;56.303;0;-0.865
25.56;56.617;-0.215;-0.858
25.632;56.408;-0.215;-0.646
25.634;56.438;-0.215;-0.646
25.7;56.553;0;-1.089
25.701;56.348;0;-1.089
25.77;56.126;0;-0.865
25.834;56.345;0;-0.865
25.839;56.443;-0.214;-0.641
25.901;56.501;-0.214;-0.641
25.909;56.726;-0.216;-0.865
25.983;55.862;0.215;-0.644
26.034;55.917;0.215;-0.644
26.056;56.664;0;-1.077
26.1;56.773;0;-1.077
26.123;56.669;-0.215;-0.644
26.236;56.713;-0.215;-0.644
26.263;57.26;-0.432;-0.865
26.3;57.175;-0.432;-0.865
26.33;57.048;-0.215;-1.073
26.403;56.632;-0.215;-0.646
26.434;56.644;-0.215;-0.646
26.47;56.97;-0.431;-0.646
26.502;57.095;-0.431;-0.646
26.54;56.979;-0.215;-0.862
26.613;56.984;-0.216;-0.865
26.634;56.749;-0.216;-0.865
26.68;57.064;-0.429;-0.858
26.701;56.882;-0.429;-0.858
26.754;56.247;0;-0.865
26.82;57.102;-0.432;-1.081
26.851;57.242;-0.432;-1.081
26.89;56.69;-0.213;-0.852
26.905;56.747;-0.213;-0.852
26.96;56.76;-0.215;-0.862
27.034;57.095;-0.434;-0.868
27.035;57.162;-0.434;-0.868
27.1;56.509;0;-0.865
27.101;56.62;0;-0.865
27.17;56.728;-0.215;-0.646
27.236;56.783;-0.215;-0.646
27.241;57.326;-0.432;-0.865
27.3;57.104;-0.432;-0.865
27.309;56.448;0;-0.858
27.383;56.354;-0.218;-0.436
27.434;56.509;-0.218;-0.436
27.456;57.043;-0.431;-0.646
27.501;57.252;-0.431;-0.646
27.523;57.257;-0.432;-0.649
27.59;57.135;-0.215;-0.862
27.635;57.177;-0.215;-0.862
27.701;57.023;-0.215;-0.862
27.73;56.812;-0.215;-0.646
27.803;57.027;-0.216;-0.865
27.834;56.973;-0.216;-0.865
27.87;57.172;-0.215;-1.073
27.903;57.173;-0.215;-1.073
27.941;57.085;-0.431;-0.646
28.01;56.973;-0.216;-0.865
28.035;56.849;-0.216;-0.865
28.079;56.312;0;-0.651
28.1;56.548;0;-0.651
28.15;57.07;-0.214;-0.855
28.17;56.868;-0.215;-0.646
28.19;57.411;-0.432;-0.865
28.21;57.083;-0.216;-0.865
28.23;56.879;-0.218;-0.654
28.239;56.698;-0.218;-0.654
28.255;56.368;0;-0.651
28.27;56.698;-0.218;-0.654
28.29;57.013;-0.431;-0.646
28.305;56.79;-0.431;-0.646
28.309;56.356;0;-0.862
28.33;57.334;-0.649;-0.865
28.35;56.356;0;-0.862
28.37;56.686;-0.217;-0.868
28.39;56.572;0;-1.081
28.41;56.795;-0.432;-0.649
28.43;56.253;-0.216;-0.432
28.439;56.154;-0.216;-0.432
28.452;56.794;-0.216;-1.081
28.472;56.363;-0.215;-0.644
28.49;56.902;-0.431;-0.862
28.506;57.002;-0.431;-0.862
28.509;55.929;0;-0.436
28.53;56.252;-0.216;-0.432
28.55;56.686;-0.217;-0.868
28.57;56.353;0;-0.858
28.59;57.21;-0.431;-1.077
28.61;56.359;0;-0.865
28.643;57.007;-0.432;-0.865
28.644;57.033;-0.432;-0.865
28.652;56.172;0;-0.649
28.67;56.488;-0.215;-0.644
28.689;57.36;-0.649;-0.865
28.705;57.399;-0.649;-0.865
28.709;57.072;-0.432;-0.865
28.73;57.083;-0.436;-0.871
28.75;56.211;0;-0.646
28.771;56.748;-0.216;-0.865
28.79;57.19;-0.649;-0.649
28.809;56.748;-0.216;-0.865
28.83;56.533;-0.215;-0.646
28.835;56.701;-0.215;-0.646
28.852;56.907;-0.215;-0.858
28.869;56.701;-0.215;-0.646
28.89;56.38;0;-0.649
28.902;56.393;0;-0.649
28.909;57.243;-0.429;-0.858
28.93;56.924;-0.215;-0.862
28.95;56.717;-0.216;-0.649
28.969;56.836;-0.434;-0.434
28.989;56.717;-0.216;-0.649
